(kicad_sch
	(version 20231120)
	(generator "eeschema")
	(generator_version "8.0")
	(uuid "c5e21742-b4da-46ed-8f1f-40e1fee34745")
	(paper "A4")
	(title_block
		(title "CP0104 - charge fictive réglable")
		(date "2021-10-17")
		(rev "v0.0")
		(comment 1 "Option utilisant le TL431 pour une bonne stabilité en temperature")
		(comment 2 "Schéma identique à CP0104 de Philippe Demerliac")
		(comment 3 "http://philippe.demerliac.free.fr/Articles/CP0104/CP0104")
	)
	(lib_symbols
		(symbol "Amplifier_Operational:LM358"
			(pin_names
				(offset 0.127)
			)
			(exclude_from_sim no)
			(in_bom yes)
			(on_board yes)
			(property "Reference" "U"
				(at 0 5.08 0)
				(effects
					(font
						(size 1.27 1.27)
					)
					(justify left)
				)
			)
			(property "Value" "LM358"
				(at 0 -5.08 0)
				(effects
					(font
						(size 1.27 1.27)
					)
					(justify left)
				)
			)
			(property "Footprint" ""
				(at 0 0 0)
				(effects
					(font
						(size 1.27 1.27)
					)
					(hide yes)
				)
			)
			(property "Datasheet" "http://www.ti.com/lit/ds/symlink/lm2904-n.pdf"
				(at 0 0 0)
				(effects
					(font
						(size 1.27 1.27)
					)
					(hide yes)
				)
			)
			(property "Description" "Low-Power, Dual Operational Amplifiers, DIP-8/SOIC-8/TO-99-8"
				(at 0 0 0)
				(effects
					(font
						(size 1.27 1.27)
					)
					(hide yes)
				)
			)
			(property "ki_locked" ""
				(at 0 0 0)
				(effects
					(font
						(size 1.27 1.27)
					)
				)
			)
			(property "ki_keywords" "dual opamp"
				(at 0 0 0)
				(effects
					(font
						(size 1.27 1.27)
					)
					(hide yes)
				)
			)
			(property "ki_fp_filters" "SOIC*3.9x4.9mm*P1.27mm* DIP*W7.62mm* TO*99* OnSemi*Micro8* TSSOP*3x3mm*P0.65mm* TSSOP*4.4x3mm*P0.65mm* MSOP*3x3mm*P0.65mm* SSOP*3.9x4.9mm*P0.635mm* LFCSP*2x2mm*P0.5mm* *SIP* SOIC*5.3x6.2mm*P1.27mm*"
				(at 0 0 0)
				(effects
					(font
						(size 1.27 1.27)
					)
					(hide yes)
				)
			)
			(symbol "LM358_1_1"
				(polyline
					(pts
						(xy -5.08 5.08) (xy 5.08 0) (xy -5.08 -5.08) (xy -5.08 5.08)
					)
					(stroke
						(width 0.254)
						(type default)
					)
					(fill
						(type background)
					)
				)
				(pin output line
					(at 7.62 0 180)
					(length 2.54)
					(name "~"
						(effects
							(font
								(size 1.27 1.27)
							)
						)
					)
					(number "1"
						(effects
							(font
								(size 1.27 1.27)
							)
						)
					)
				)
				(pin input line
					(at -7.62 -2.54 0)
					(length 2.54)
					(name "-"
						(effects
							(font
								(size 1.27 1.27)
							)
						)
					)
					(number "2"
						(effects
							(font
								(size 1.27 1.27)
							)
						)
					)
				)
				(pin input line
					(at -7.62 2.54 0)
					(length 2.54)
					(name "+"
						(effects
							(font
								(size 1.27 1.27)
							)
						)
					)
					(number "3"
						(effects
							(font
								(size 1.27 1.27)
							)
						)
					)
				)
			)
			(symbol "LM358_2_1"
				(polyline
					(pts
						(xy -5.08 5.08) (xy 5.08 0) (xy -5.08 -5.08) (xy -5.08 5.08)
					)
					(stroke
						(width 0.254)
						(type default)
					)
					(fill
						(type background)
					)
				)
				(pin input line
					(at -7.62 2.54 0)
					(length 2.54)
					(name "+"
						(effects
							(font
								(size 1.27 1.27)
							)
						)
					)
					(number "5"
						(effects
							(font
								(size 1.27 1.27)
							)
						)
					)
				)
				(pin input line
					(at -7.62 -2.54 0)
					(length 2.54)
					(name "-"
						(effects
							(font
								(size 1.27 1.27)
							)
						)
					)
					(number "6"
						(effects
							(font
								(size 1.27 1.27)
							)
						)
					)
				)
				(pin output line
					(at 7.62 0 180)
					(length 2.54)
					(name "~"
						(effects
							(font
								(size 1.27 1.27)
							)
						)
					)
					(number "7"
						(effects
							(font
								(size 1.27 1.27)
							)
						)
					)
				)
			)
			(symbol "LM358_3_1"
				(pin power_in line
					(at -2.54 -7.62 90)
					(length 3.81)
					(name "V-"
						(effects
							(font
								(size 1.27 1.27)
							)
						)
					)
					(number "4"
						(effects
							(font
								(size 1.27 1.27)
							)
						)
					)
				)
				(pin power_in line
					(at -2.54 7.62 270)
					(length 3.81)
					(name "V+"
						(effects
							(font
								(size 1.27 1.27)
							)
						)
					)
					(number "8"
						(effects
							(font
								(size 1.27 1.27)
							)
						)
					)
				)
			)
		)
		(symbol "Connector:TestPoint"
			(pin_numbers hide)
			(pin_names
				(offset 0.762) hide)
			(exclude_from_sim no)
			(in_bom yes)
			(on_board yes)
			(property "Reference" "TP"
				(at 0 6.858 0)
				(effects
					(font
						(size 1.27 1.27)
					)
				)
			)
			(property "Value" "TestPoint"
				(at 0 5.08 0)
				(effects
					(font
						(size 1.27 1.27)
					)
				)
			)
			(property "Footprint" ""
				(at 5.08 0 0)
				(effects
					(font
						(size 1.27 1.27)
					)
					(hide yes)
				)
			)
			(property "Datasheet" "~"
				(at 5.08 0 0)
				(effects
					(font
						(size 1.27 1.27)
					)
					(hide yes)
				)
			)
			(property "Description" "test point"
				(at 0 0 0)
				(effects
					(font
						(size 1.27 1.27)
					)
					(hide yes)
				)
			)
			(property "ki_keywords" "test point tp"
				(at 0 0 0)
				(effects
					(font
						(size 1.27 1.27)
					)
					(hide yes)
				)
			)
			(property "ki_fp_filters" "Pin* Test*"
				(at 0 0 0)
				(effects
					(font
						(size 1.27 1.27)
					)
					(hide yes)
				)
			)
			(symbol "TestPoint_0_1"
				(circle
					(center 0 3.302)
					(radius 0.762)
					(stroke
						(width 0)
						(type default)
					)
					(fill
						(type none)
					)
				)
			)
			(symbol "TestPoint_1_1"
				(pin passive line
					(at 0 0 90)
					(length 2.54)
					(name "1"
						(effects
							(font
								(size 1.27 1.27)
							)
						)
					)
					(number "1"
						(effects
							(font
								(size 1.27 1.27)
							)
						)
					)
				)
			)
		)
		(symbol "Device:C"
			(pin_numbers hide)
			(pin_names
				(offset 0.254)
			)
			(exclude_from_sim no)
			(in_bom yes)
			(on_board yes)
			(property "Reference" "C"
				(at 0.635 2.54 0)
				(effects
					(font
						(size 1.27 1.27)
					)
					(justify left)
				)
			)
			(property "Value" "C"
				(at 0.635 -2.54 0)
				(effects
					(font
						(size 1.27 1.27)
					)
					(justify left)
				)
			)
			(property "Footprint" ""
				(at 0.9652 -3.81 0)
				(effects
					(font
						(size 1.27 1.27)
					)
					(hide yes)
				)
			)
			(property "Datasheet" "~"
				(at 0 0 0)
				(effects
					(font
						(size 1.27 1.27)
					)
					(hide yes)
				)
			)
			(property "Description" "Unpolarized capacitor"
				(at 0 0 0)
				(effects
					(font
						(size 1.27 1.27)
					)
					(hide yes)
				)
			)
			(property "ki_keywords" "cap capacitor"
				(at 0 0 0)
				(effects
					(font
						(size 1.27 1.27)
					)
					(hide yes)
				)
			)
			(property "ki_fp_filters" "C_*"
				(at 0 0 0)
				(effects
					(font
						(size 1.27 1.27)
					)
					(hide yes)
				)
			)
			(symbol "C_0_1"
				(polyline
					(pts
						(xy -2.032 -0.762) (xy 2.032 -0.762)
					)
					(stroke
						(width 0.508)
						(type default)
					)
					(fill
						(type none)
					)
				)
				(polyline
					(pts
						(xy -2.032 0.762) (xy 2.032 0.762)
					)
					(stroke
						(width 0.508)
						(type default)
					)
					(fill
						(type none)
					)
				)
			)
			(symbol "C_1_1"
				(pin passive line
					(at 0 3.81 270)
					(length 2.794)
					(name "~"
						(effects
							(font
								(size 1.27 1.27)
							)
						)
					)
					(number "1"
						(effects
							(font
								(size 1.27 1.27)
							)
						)
					)
				)
				(pin passive line
					(at 0 -3.81 90)
					(length 2.794)
					(name "~"
						(effects
							(font
								(size 1.27 1.27)
							)
						)
					)
					(number "2"
						(effects
							(font
								(size 1.27 1.27)
							)
						)
					)
				)
			)
		)
		(symbol "Device:C_Polarized_US"
			(pin_numbers hide)
			(pin_names
				(offset 0.254) hide)
			(exclude_from_sim no)
			(in_bom yes)
			(on_board yes)
			(property "Reference" "C"
				(at 0.635 2.54 0)
				(effects
					(font
						(size 1.27 1.27)
					)
					(justify left)
				)
			)
			(property "Value" "C_Polarized_US"
				(at 0.635 -2.54 0)
				(effects
					(font
						(size 1.27 1.27)
					)
					(justify left)
				)
			)
			(property "Footprint" ""
				(at 0 0 0)
				(effects
					(font
						(size 1.27 1.27)
					)
					(hide yes)
				)
			)
			(property "Datasheet" "~"
				(at 0 0 0)
				(effects
					(font
						(size 1.27 1.27)
					)
					(hide yes)
				)
			)
			(property "Description" "Polarized capacitor, US symbol"
				(at 0 0 0)
				(effects
					(font
						(size 1.27 1.27)
					)
					(hide yes)
				)
			)
			(property "ki_keywords" "cap capacitor"
				(at 0 0 0)
				(effects
					(font
						(size 1.27 1.27)
					)
					(hide yes)
				)
			)
			(property "ki_fp_filters" "CP_*"
				(at 0 0 0)
				(effects
					(font
						(size 1.27 1.27)
					)
					(hide yes)
				)
			)
			(symbol "C_Polarized_US_0_1"
				(polyline
					(pts
						(xy -2.032 0.762) (xy 2.032 0.762)
					)
					(stroke
						(width 0.508)
						(type default)
					)
					(fill
						(type none)
					)
				)
				(polyline
					(pts
						(xy -1.778 2.286) (xy -0.762 2.286)
					)
					(stroke
						(width 0)
						(type default)
					)
					(fill
						(type none)
					)
				)
				(polyline
					(pts
						(xy -1.27 1.778) (xy -1.27 2.794)
					)
					(stroke
						(width 0)
						(type default)
					)
					(fill
						(type none)
					)
				)
				(arc
					(start 2.032 -1.27)
					(mid 0 -0.5572)
					(end -2.032 -1.27)
					(stroke
						(width 0.508)
						(type default)
					)
					(fill
						(type none)
					)
				)
			)
			(symbol "C_Polarized_US_1_1"
				(pin passive line
					(at 0 3.81 270)
					(length 2.794)
					(name "~"
						(effects
							(font
								(size 1.27 1.27)
							)
						)
					)
					(number "1"
						(effects
							(font
								(size 1.27 1.27)
							)
						)
					)
				)
				(pin passive line
					(at 0 -3.81 90)
					(length 3.302)
					(name "~"
						(effects
							(font
								(size 1.27 1.27)
							)
						)
					)
					(number "2"
						(effects
							(font
								(size 1.27 1.27)
							)
						)
					)
				)
			)
		)
		(symbol "Device:D_Zener"
			(pin_numbers hide)
			(pin_names
				(offset 1.016) hide)
			(exclude_from_sim no)
			(in_bom yes)
			(on_board yes)
			(property "Reference" "D"
				(at 0 2.54 0)
				(effects
					(font
						(size 1.27 1.27)
					)
				)
			)
			(property "Value" "D_Zener"
				(at 0 -2.54 0)
				(effects
					(font
						(size 1.27 1.27)
					)
				)
			)
			(property "Footprint" ""
				(at 0 0 0)
				(effects
					(font
						(size 1.27 1.27)
					)
					(hide yes)
				)
			)
			(property "Datasheet" "~"
				(at 0 0 0)
				(effects
					(font
						(size 1.27 1.27)
					)
					(hide yes)
				)
			)
			(property "Description" "Zener diode"
				(at 0 0 0)
				(effects
					(font
						(size 1.27 1.27)
					)
					(hide yes)
				)
			)
			(property "ki_keywords" "diode"
				(at 0 0 0)
				(effects
					(font
						(size 1.27 1.27)
					)
					(hide yes)
				)
			)
			(property "ki_fp_filters" "TO-???* *_Diode_* *SingleDiode* D_*"
				(at 0 0 0)
				(effects
					(font
						(size 1.27 1.27)
					)
					(hide yes)
				)
			)
			(symbol "D_Zener_0_1"
				(polyline
					(pts
						(xy 1.27 0) (xy -1.27 0)
					)
					(stroke
						(width 0)
						(type default)
					)
					(fill
						(type none)
					)
				)
				(polyline
					(pts
						(xy -1.27 -1.27) (xy -1.27 1.27) (xy -0.762 1.27)
					)
					(stroke
						(width 0.254)
						(type default)
					)
					(fill
						(type none)
					)
				)
				(polyline
					(pts
						(xy 1.27 -1.27) (xy 1.27 1.27) (xy -1.27 0) (xy 1.27 -1.27)
					)
					(stroke
						(width 0.254)
						(type default)
					)
					(fill
						(type none)
					)
				)
			)
			(symbol "D_Zener_1_1"
				(pin passive line
					(at -3.81 0 0)
					(length 2.54)
					(name "K"
						(effects
							(font
								(size 1.27 1.27)
							)
						)
					)
					(number "1"
						(effects
							(font
								(size 1.27 1.27)
							)
						)
					)
				)
				(pin passive line
					(at 3.81 0 180)
					(length 2.54)
					(name "A"
						(effects
							(font
								(size 1.27 1.27)
							)
						)
					)
					(number "2"
						(effects
							(font
								(size 1.27 1.27)
							)
						)
					)
				)
			)
		)
		(symbol "Device:Fuse"
			(pin_numbers hide)
			(pin_names
				(offset 0)
			)
			(exclude_from_sim no)
			(in_bom yes)
			(on_board yes)
			(property "Reference" "F"
				(at 2.032 0 90)
				(effects
					(font
						(size 1.27 1.27)
					)
				)
			)
			(property "Value" "Fuse"
				(at -1.905 0 90)
				(effects
					(font
						(size 1.27 1.27)
					)
				)
			)
			(property "Footprint" ""
				(at -1.778 0 90)
				(effects
					(font
						(size 1.27 1.27)
					)
					(hide yes)
				)
			)
			(property "Datasheet" "~"
				(at 0 0 0)
				(effects
					(font
						(size 1.27 1.27)
					)
					(hide yes)
				)
			)
			(property "Description" "Fuse"
				(at 0 0 0)
				(effects
					(font
						(size 1.27 1.27)
					)
					(hide yes)
				)
			)
			(property "ki_keywords" "fuse"
				(at 0 0 0)
				(effects
					(font
						(size 1.27 1.27)
					)
					(hide yes)
				)
			)
			(property "ki_fp_filters" "*Fuse*"
				(at 0 0 0)
				(effects
					(font
						(size 1.27 1.27)
					)
					(hide yes)
				)
			)
			(symbol "Fuse_0_1"
				(rectangle
					(start -0.762 -2.54)
					(end 0.762 2.54)
					(stroke
						(width 0.254)
						(type default)
					)
					(fill
						(type none)
					)
				)
				(polyline
					(pts
						(xy 0 2.54) (xy 0 -2.54)
					)
					(stroke
						(width 0)
						(type default)
					)
					(fill
						(type none)
					)
				)
			)
			(symbol "Fuse_1_1"
				(pin passive line
					(at 0 3.81 270)
					(length 1.27)
					(name "~"
						(effects
							(font
								(size 1.27 1.27)
							)
						)
					)
					(number "1"
						(effects
							(font
								(size 1.27 1.27)
							)
						)
					)
				)
				(pin passive line
					(at 0 -3.81 90)
					(length 1.27)
					(name "~"
						(effects
							(font
								(size 1.27 1.27)
							)
						)
					)
					(number "2"
						(effects
							(font
								(size 1.27 1.27)
							)
						)
					)
				)
			)
		)
		(symbol "Device:R_Potentiometer_US"
			(pin_names
				(offset 1.016) hide)
			(exclude_from_sim no)
			(in_bom yes)
			(on_board yes)
			(property "Reference" "RV"
				(at -4.445 0 90)
				(effects
					(font
						(size 1.27 1.27)
					)
				)
			)
			(property "Value" "R_Potentiometer_US"
				(at -2.54 0 90)
				(effects
					(font
						(size 1.27 1.27)
					)
				)
			)
			(property "Footprint" ""
				(at 0 0 0)
				(effects
					(font
						(size 1.27 1.27)
					)
					(hide yes)
				)
			)
			(property "Datasheet" "~"
				(at 0 0 0)
				(effects
					(font
						(size 1.27 1.27)
					)
					(hide yes)
				)
			)
			(property "Description" "Potentiometer, US symbol"
				(at 0 0 0)
				(effects
					(font
						(size 1.27 1.27)
					)
					(hide yes)
				)
			)
			(property "ki_keywords" "resistor variable"
				(at 0 0 0)
				(effects
					(font
						(size 1.27 1.27)
					)
					(hide yes)
				)
			)
			(property "ki_fp_filters" "Potentiometer*"
				(at 0 0 0)
				(effects
					(font
						(size 1.27 1.27)
					)
					(hide yes)
				)
			)
			(symbol "R_Potentiometer_US_0_1"
				(polyline
					(pts
						(xy 0 -2.286) (xy 0 -2.54)
					)
					(stroke
						(width 0)
						(type default)
					)
					(fill
						(type none)
					)
				)
				(polyline
					(pts
						(xy 0 2.54) (xy 0 2.286)
					)
					(stroke
						(width 0)
						(type default)
					)
					(fill
						(type none)
					)
				)
				(polyline
					(pts
						(xy 2.54 0) (xy 1.524 0)
					)
					(stroke
						(width 0)
						(type default)
					)
					(fill
						(type none)
					)
				)
				(polyline
					(pts
						(xy 1.143 0) (xy 2.286 0.508) (xy 2.286 -0.508) (xy 1.143 0)
					)
					(stroke
						(width 0)
						(type default)
					)
					(fill
						(type outline)
					)
				)
				(polyline
					(pts
						(xy 0 -0.762) (xy 1.016 -1.143) (xy 0 -1.524) (xy -1.016 -1.905) (xy 0 -2.286)
					)
					(stroke
						(width 0)
						(type default)
					)
					(fill
						(type none)
					)
				)
				(polyline
					(pts
						(xy 0 0.762) (xy 1.016 0.381) (xy 0 0) (xy -1.016 -0.381) (xy 0 -0.762)
					)
					(stroke
						(width 0)
						(type default)
					)
					(fill
						(type none)
					)
				)
				(polyline
					(pts
						(xy 0 2.286) (xy 1.016 1.905) (xy 0 1.524) (xy -1.016 1.143) (xy 0 0.762)
					)
					(stroke
						(width 0)
						(type default)
					)
					(fill
						(type none)
					)
				)
			)
			(symbol "R_Potentiometer_US_1_1"
				(pin passive line
					(at 0 3.81 270)
					(length 1.27)
					(name "1"
						(effects
							(font
								(size 1.27 1.27)
							)
						)
					)
					(number "1"
						(effects
							(font
								(size 1.27 1.27)
							)
						)
					)
				)
				(pin passive line
					(at 3.81 0 180)
					(length 1.27)
					(name "2"
						(effects
							(font
								(size 1.27 1.27)
							)
						)
					)
					(number "2"
						(effects
							(font
								(size 1.27 1.27)
							)
						)
					)
				)
				(pin passive line
					(at 0 -3.81 90)
					(length 1.27)
					(name "3"
						(effects
							(font
								(size 1.27 1.27)
							)
						)
					)
					(number "3"
						(effects
							(font
								(size 1.27 1.27)
							)
						)
					)
				)
			)
		)
		(symbol "Device:R_US"
			(pin_numbers hide)
			(pin_names
				(offset 0)
			)
			(exclude_from_sim no)
			(in_bom yes)
			(on_board yes)
			(property "Reference" "R"
				(at 2.54 0 90)
				(effects
					(font
						(size 1.27 1.27)
					)
				)
			)
			(property "Value" "R_US"
				(at -2.54 0 90)
				(effects
					(font
						(size 1.27 1.27)
					)
				)
			)
			(property "Footprint" ""
				(at 1.016 -0.254 90)
				(effects
					(font
						(size 1.27 1.27)
					)
					(hide yes)
				)
			)
			(property "Datasheet" "~"
				(at 0 0 0)
				(effects
					(font
						(size 1.27 1.27)
					)
					(hide yes)
				)
			)
			(property "Description" "Resistor, US symbol"
				(at 0 0 0)
				(effects
					(font
						(size 1.27 1.27)
					)
					(hide yes)
				)
			)
			(property "ki_keywords" "R res resistor"
				(at 0 0 0)
				(effects
					(font
						(size 1.27 1.27)
					)
					(hide yes)
				)
			)
			(property "ki_fp_filters" "R_*"
				(at 0 0 0)
				(effects
					(font
						(size 1.27 1.27)
					)
					(hide yes)
				)
			)
			(symbol "R_US_0_1"
				(polyline
					(pts
						(xy 0 -2.286) (xy 0 -2.54)
					)
					(stroke
						(width 0)
						(type default)
					)
					(fill
						(type none)
					)
				)
				(polyline
					(pts
						(xy 0 2.286) (xy 0 2.54)
					)
					(stroke
						(width 0)
						(type default)
					)
					(fill
						(type none)
					)
				)
				(polyline
					(pts
						(xy 0 -0.762) (xy 1.016 -1.143) (xy 0 -1.524) (xy -1.016 -1.905) (xy 0 -2.286)
					)
					(stroke
						(width 0)
						(type default)
					)
					(fill
						(type none)
					)
				)
				(polyline
					(pts
						(xy 0 0.762) (xy 1.016 0.381) (xy 0 0) (xy -1.016 -0.381) (xy 0 -0.762)
					)
					(stroke
						(width 0)
						(type default)
					)
					(fill
						(type none)
					)
				)
				(polyline
					(pts
						(xy 0 2.286) (xy 1.016 1.905) (xy 0 1.524) (xy -1.016 1.143) (xy 0 0.762)
					)
					(stroke
						(width 0)
						(type default)
					)
					(fill
						(type none)
					)
				)
			)
			(symbol "R_US_1_1"
				(pin passive line
					(at 0 3.81 270)
					(length 1.27)
					(name "~"
						(effects
							(font
								(size 1.27 1.27)
							)
						)
					)
					(number "1"
						(effects
							(font
								(size 1.27 1.27)
							)
						)
					)
				)
				(pin passive line
					(at 0 -3.81 90)
					(length 1.27)
					(name "~"
						(effects
							(font
								(size 1.27 1.27)
							)
						)
					)
					(number "2"
						(effects
							(font
								(size 1.27 1.27)
							)
						)
					)
				)
			)
		)
		(symbol "Reference_Voltage:TL431P"
			(pin_numbers hide)
			(pin_names hide)
			(exclude_from_sim no)
			(in_bom yes)
			(on_board yes)
			(property "Reference" "U"
				(at -2.54 2.54 0)
				(effects
					(font
						(size 1.27 1.27)
					)
				)
			)
			(property "Value" "TL431P"
				(at 0 -2.54 0)
				(effects
					(font
						(size 1.27 1.27)
					)
				)
			)
			(property "Footprint" "Package_DIP:DIP-8_W7.62mm"
				(at 0 -3.81 0)
				(effects
					(font
						(size 1.27 1.27)
						(italic yes)
					)
					(hide yes)
				)
			)
			(property "Datasheet" "http://www.ti.com/lit/ds/symlink/tl431.pdf"
				(at 0 0 0)
				(effects
					(font
						(size 1.27 1.27)
						(italic yes)
					)
					(hide yes)
				)
			)
			(property "Description" "Shunt Regulator, PDIP-8"
				(at 0 0 0)
				(effects
					(font
						(size 1.27 1.27)
					)
					(hide yes)
				)
			)
			(property "ki_keywords" "diode device shunt regulator"
				(at 0 0 0)
				(effects
					(font
						(size 1.27 1.27)
					)
					(hide yes)
				)
			)
			(property "ki_fp_filters" "DIP*W7.62mm*"
				(at 0 0 0)
				(effects
					(font
						(size 1.27 1.27)
					)
					(hide yes)
				)
			)
			(symbol "TL431P_0_1"
				(polyline
					(pts
						(xy -1.27 0) (xy 0 0) (xy 1.27 0)
					)
					(stroke
						(width 0)
						(type default)
					)
					(fill
						(type none)
					)
				)
				(polyline
					(pts
						(xy -0.762 0.762) (xy 0.762 0) (xy -0.762 -0.762)
					)
					(stroke
						(width 0)
						(type default)
					)
					(fill
						(type outline)
					)
				)
				(polyline
					(pts
						(xy 0.508 -1.016) (xy 0.762 -0.762) (xy 0.762 0.762) (xy 0.762 0.762)
					)
					(stroke
						(width 0.254)
						(type default)
					)
					(fill
						(type none)
					)
				)
			)
			(symbol "TL431P_1_1"
				(pin passive line
					(at 2.54 0 180)
					(length 1.27)
					(name "K"
						(effects
							(font
								(size 1.27 1.27)
							)
						)
					)
					(number "1"
						(effects
							(font
								(size 1.27 1.27)
							)
						)
					)
				)
				(pin passive line
					(at -2.54 0 0)
					(length 1.27)
					(name "A"
						(effects
							(font
								(size 1.27 1.27)
							)
						)
					)
					(number "6"
						(effects
							(font
								(size 1.27 1.27)
							)
						)
					)
				)
				(pin passive line
					(at 0 2.54 270)
					(length 2.54)
					(name "REF"
						(effects
							(font
								(size 1.27 1.27)
							)
						)
					)
					(number "8"
						(effects
							(font
								(size 1.27 1.27)
							)
						)
					)
				)
			)
		)
		(symbol "cp0104-rescue:+12V-power"
			(power)
			(pin_names
				(offset 0)
			)
			(exclude_from_sim no)
			(in_bom yes)
			(on_board yes)
			(property "Reference" "#PWR"
				(at 0 -3.81 0)
				(effects
					(font
						(size 1.27 1.27)
					)
					(hide yes)
				)
			)
			(property "Value" "power_+12V"
				(at 0 3.556 0)
				(effects
					(font
						(size 1.27 1.27)
					)
				)
			)
			(property "Footprint" ""
				(at 0 0 0)
				(effects
					(font
						(size 1.27 1.27)
					)
					(hide yes)
				)
			)
			(property "Datasheet" ""
				(at 0 0 0)
				(effects
					(font
						(size 1.27 1.27)
					)
					(hide yes)
				)
			)
			(property "Description" ""
				(at 0 0 0)
				(effects
					(font
						(size 1.27 1.27)
					)
					(hide yes)
				)
			)
			(symbol "+12V-power_0_1"
				(polyline
					(pts
						(xy -0.762 1.27) (xy 0 2.54)
					)
					(stroke
						(width 0)
						(type solid)
					)
					(fill
						(type none)
					)
				)
				(polyline
					(pts
						(xy 0 0) (xy 0 2.54)
					)
					(stroke
						(width 0)
						(type solid)
					)
					(fill
						(type none)
					)
				)
				(polyline
					(pts
						(xy 0 2.54) (xy 0.762 1.27)
					)
					(stroke
						(width 0)
						(type solid)
					)
					(fill
						(type none)
					)
				)
			)
			(symbol "+12V-power_1_1"
				(pin power_in line
					(at 0 0 90)
					(length 0) hide
					(name "+12V"
						(effects
							(font
								(size 1.27 1.27)
							)
						)
					)
					(number "1"
						(effects
							(font
								(size 1.27 1.27)
							)
						)
					)
				)
			)
		)
		(symbol "cp0104-rescue:Conn_01x02_Male-Connector"
			(pin_names
				(offset 1.016) hide)
			(exclude_from_sim no)
			(in_bom yes)
			(on_board yes)
			(property "Reference" "J"
				(at 0 2.54 0)
				(effects
					(font
						(size 1.27 1.27)
					)
				)
			)
			(property "Value" "Connector_Conn_01x02_Male"
				(at 0 -5.08 0)
				(effects
					(font
						(size 1.27 1.27)
					)
				)
			)
			(property "Footprint" ""
				(at 0 0 0)
				(effects
					(font
						(size 1.27 1.27)
					)
					(hide yes)
				)
			)
			(property "Datasheet" ""
				(at 0 0 0)
				(effects
					(font
						(size 1.27 1.27)
					)
					(hide yes)
				)
			)
			(property "Description" ""
				(at 0 0 0)
				(effects
					(font
						(size 1.27 1.27)
					)
					(hide yes)
				)
			)
			(property "ki_fp_filters" "Connector*:*_1x??_*"
				(at 0 0 0)
				(effects
					(font
						(size 1.27 1.27)
					)
					(hide yes)
				)
			)
			(symbol "Conn_01x02_Male-Connector_1_1"
				(polyline
					(pts
						(xy 1.27 -2.54) (xy 0.8636 -2.54)
					)
					(stroke
						(width 0.1524)
						(type solid)
					)
					(fill
						(type none)
					)
				)
				(polyline
					(pts
						(xy 1.27 0) (xy 0.8636 0)
					)
					(stroke
						(width 0.1524)
						(type solid)
					)
					(fill
						(type none)
					)
				)
				(rectangle
					(start 0.8636 -2.413)
					(end 0 -2.667)
					(stroke
						(width 0.1524)
						(type solid)
					)
					(fill
						(type outline)
					)
				)
				(rectangle
					(start 0.8636 0.127)
					(end 0 -0.127)
					(stroke
						(width 0.1524)
						(type solid)
					)
					(fill
						(type outline)
					)
				)
				(pin passive line
					(at 5.08 0 180)
					(length 3.81)
					(name "Pin_1"
						(effects
							(font
								(size 1.27 1.27)
							)
						)
					)
					(number "1"
						(effects
							(font
								(size 1.27 1.27)
							)
						)
					)
				)
				(pin passive line
					(at 5.08 -2.54 180)
					(length 3.81)
					(name "Pin_2"
						(effects
							(font
								(size 1.27 1.27)
							)
						)
					)
					(number "2"
						(effects
							(font
								(size 1.27 1.27)
							)
						)
					)
				)
			)
		)
		(symbol "cp0104-rescue:GND-power"
			(power)
			(pin_names
				(offset 0)
			)
			(exclude_from_sim no)
			(in_bom yes)
			(on_board yes)
			(property "Reference" "#PWR"
				(at 0 -6.35 0)
				(effects
					(font
						(size 1.27 1.27)
					)
					(hide yes)
				)
			)
			(property "Value" "power_GND"
				(at 0 -3.81 0)
				(effects
					(font
						(size 1.27 1.27)
					)
				)
			)
			(property "Footprint" ""
				(at 0 0 0)
				(effects
					(font
						(size 1.27 1.27)
					)
					(hide yes)
				)
			)
			(property "Datasheet" ""
				(at 0 0 0)
				(effects
					(font
						(size 1.27 1.27)
					)
					(hide yes)
				)
			)
			(property "Description" ""
				(at 0 0 0)
				(effects
					(font
						(size 1.27 1.27)
					)
					(hide yes)
				)
			)
			(symbol "GND-power_0_1"
				(polyline
					(pts
						(xy 0 0) (xy 0 -1.27) (xy 1.27 -1.27) (xy 0 -2.54) (xy -1.27 -1.27) (xy 0 -1.27)
					)
					(stroke
						(width 0)
						(type solid)
					)
					(fill
						(type none)
					)
				)
			)
			(symbol "GND-power_1_1"
				(pin power_in line
					(at 0 0 270)
					(length 0) hide
					(name "GND"
						(effects
							(font
								(size 1.27 1.27)
							)
						)
					)
					(number "1"
						(effects
							(font
								(size 1.27 1.27)
							)
						)
					)
				)
			)
		)
		(symbol "cp0104-rescue:MOSFET-NCH-2N7002PW-SparkFun-DiscreteSemi"
			(pin_numbers hide)
			(pin_names
				(offset 1.016) hide)
			(exclude_from_sim no)
			(in_bom yes)
			(on_board yes)
			(property "Reference" "Q"
				(at 3.81 3.81 0)
				(effects
					(font
						(size 1.143 1.143)
					)
					(justify left bottom)
				)
			)
			(property "Value" "SparkFun-DiscreteSemi_MOSFET-NCH-2N7002PW"
				(at 3.81 -5.08 0)
				(effects
					(font
						(size 1.143 1.143)
					)
					(justify left bottom)
				)
			)
			(property "Footprint" "SOT323"
				(at 0 7.62 0)
				(effects
					(font
						(size 0.508 0.508)
					)
					(hide yes)
				)
			)
			(property "Datasheet" ""
				(at 0 0 0)
				(effects
					(font
						(size 1.27 1.27)
					)
					(hide yes)
				)
			)
			(property "Description" "TRANS-11151"
				(at 0 8.89 0)
				(effects
					(font
						(size 1.524 1.524)
					)
				)
			)
			(property "ki_locked" ""
				(at 0 0 0)
				(effects
					(font
						(size 1.27 1.27)
					)
				)
			)
			(property "ki_fp_filters" "*SOT323* *SOT23-3* *SOT23-3*"
				(at 0 0 0)
				(effects
					(font
						(size 1.27 1.27)
					)
					(hide yes)
				)
			)
			(symbol "MOSFET-NCH-2N7002PW-SparkFun-DiscreteSemi_1_0"
				(polyline
					(pts
						(xy -2.54 -2.54) (xy -2.54 2.54)
					)
					(stroke
						(width 0)
						(type solid)
					)
					(fill
						(type none)
					)
				)
				(polyline
					(pts
						(xy -1.9812 -1.905) (xy -1.9812 -2.54)
					)
					(stroke
						(width 0)
						(type solid)
					)
					(fill
						(type none)
					)
				)
				(polyline
					(pts
						(xy -1.9812 -1.905) (xy 0 -1.905)
					)
					(stroke
						(width 0)
						(type solid)
					)
					(fill
						(type none)
					)
				)
				(polyline
					(pts
						(xy -1.9812 -1.2954) (xy -1.9812 -1.905)
					)
					(stroke
						(width 0)
						(type solid)
					)
					(fill
						(type none)
					)
				)
				(polyline
					(pts
						(xy -1.9812 0.6858) (xy -1.9812 -0.8382)
					)
					(stroke
						(width 0)
						(type solid)
					)
					(fill
						(type none)
					)
				)
				(polyline
					(pts
						(xy -1.9812 1.8034) (xy -1.9812 1.0922)
					)
					(stroke
						(width 0)
						(type solid)
					)
					(fill
						(type none)
					)
				)
				(polyline
					(pts
						(xy -1.9812 1.8034) (xy 2.54 1.8034)
					)
					(stroke
						(width 0)
						(type solid)
					)
					(fill
						(type none)
					)
				)
				(polyline
					(pts
						(xy -1.9812 2.54) (xy -1.9812 1.8034)
					)
					(stroke
						(width 0)
						(type solid)
					)
					(fill
						(type none)
					)
				)
				(polyline
					(pts
						(xy 0 -1.905) (xy 0 0)
					)
					(stroke
						(width 0)
						(type solid)
					)
					(fill
						(type none)
					)
				)
				(polyline
					(pts
						(xy 0 0) (xy -1.2192 0)
					)
					(stroke
						(width 0)
						(type solid)
					)
					(fill
						(type none)
					)
				)
				(polyline
					(pts
						(xy 1.6002 0.381) (xy 1.778 0.5588)
					)
					(stroke
						(width 0)
						(type solid)
					)
					(fill
						(type none)
					)
				)
				(polyline
					(pts
						(xy 2.54 -2.54) (xy 2.54 -1.905)
					)
					(stroke
						(width 0)
						(type solid)
					)
					(fill
						(type none)
					)
				)
				(polyline
					(pts
						(xy 2.54 -1.905) (xy 0 -1.905)
					)
					(stroke
						(width 0)
						(type solid)
					)
					(fill
						(type none)
					)
				)
				(polyline
					(pts
						(xy 2.54 -0.7112) (xy 2.54 -1.905)
					)
					(stroke
						(width 0)
						(type solid)
					)
					(fill
						(type none)
					)
				)
				(polyline
					(pts
						(xy 2.54 0.5588) (xy 1.778 0.5588)
					)
					(stroke
						(width 0)
						(type solid)
					)
					(fill
						(type none)
					)
				)
				(polyline
					(pts
						(xy 2.54 0.5588) (xy 3.302 0.5588)
					)
					(stroke
						(width 0)
						(type solid)
					)
					(fill
						(type none)
					)
				)
				(polyline
					(pts
						(xy 2.54 1.8034) (xy 2.54 0.5588)
					)
					(stroke
						(width 0)
						(type solid)
					)
					(fill
						(type none)
					)
				)
				(polyline
					(pts
						(xy 2.54 2.54) (xy 2.54 1.8034)
					)
					(stroke
						(width 0)
						(type solid)
					)
					(fill
						(type none)
					)
				)
				(polyline
					(pts
						(xy 3.302 0.5588) (xy 3.4798 0.7366)
					)
					(stroke
						(width 0)
						(type solid)
					)
					(fill
						(type none)
					)
				)
			)
			(symbol "MOSFET-NCH-2N7002PW-SparkFun-DiscreteSemi_1_1"
				(polyline
					(pts
						(xy -1.9812 0) (xy -1.2192 0.254) (xy -1.2192 0.254) (xy -1.2192 -0.254) (xy -1.2192 -0.254) (xy -1.9812 0)
					)
					(stroke
						(width 0)
						(type solid)
					)
					(fill
						(type outline)
					)
				)
				(polyline
					(pts
						(xy 1.778 -0.7112) (xy 2.54 0.5588) (xy 2.54 0.5588) (xy 3.302 -0.7112) (xy 3.302 -0.7112) (xy 1.778 -0.7112)
					)
					(stroke
						(width 0)
						(type solid)
					)
					(fill
						(type outline)
					)
				)
				(pin bidirectional line
					(at -5.08 -2.54 0)
					(length 2.54)
					(name "G"
						(effects
							(font
								(size 1.016 1.016)
							)
						)
					)
					(number "1"
						(effects
							(font
								(size 1.016 1.016)
							)
						)
					)
				)
				(pin bidirectional line
					(at 2.54 -5.08 90)
					(length 2.54)
					(name "S"
						(effects
							(font
								(size 1.016 1.016)
							)
						)
					)
					(number "2"
						(effects
							(font
								(size 1.016 1.016)
							)
						)
					)
				)
				(pin bidirectional line
					(at 2.54 5.08 270)
					(length 2.54)
					(name "D"
						(effects
							(font
								(size 1.016 1.016)
							)
						)
					)
					(number "3"
						(effects
							(font
								(size 1.016 1.016)
							)
						)
					)
				)
			)
		)
		(symbol "cp0104-rescue:PWR_FLAG-power"
			(power)
			(pin_numbers hide)
			(pin_names
				(offset 0) hide)
			(exclude_from_sim no)
			(in_bom yes)
			(on_board yes)
			(property "Reference" "#FLG"
				(at 0 1.905 0)
				(effects
					(font
						(size 1.27 1.27)
					)
					(hide yes)
				)
			)
			(property "Value" "power_PWR_FLAG"
				(at 0 3.81 0)
				(effects
					(font
						(size 1.27 1.27)
					)
				)
			)
			(property "Footprint" ""
				(at 0 0 0)
				(effects
					(font
						(size 1.27 1.27)
					)
					(hide yes)
				)
			)
			(property "Datasheet" ""
				(at 0 0 0)
				(effects
					(font
						(size 1.27 1.27)
					)
					(hide yes)
				)
			)
			(property "Description" ""
				(at 0 0 0)
				(effects
					(font
						(size 1.27 1.27)
					)
					(hide yes)
				)
			)
			(symbol "PWR_FLAG-power_0_0"
				(pin power_out line
					(at 0 0 90)
					(length 0)
					(name "pwr"
						(effects
							(font
								(size 1.27 1.27)
							)
						)
					)
					(number "1"
						(effects
							(font
								(size 1.27 1.27)
							)
						)
					)
				)
			)
			(symbol "PWR_FLAG-power_0_1"
				(polyline
					(pts
						(xy 0 0) (xy 0 1.27) (xy -1.016 1.905) (xy 0 2.54) (xy 1.016 1.905) (xy 0 1.27)
					)
					(stroke
						(width 0)
						(type solid)
					)
					(fill
						(type none)
					)
				)
			)
		)
		(symbol "cp0104-rescue:VA-metter5W-Device"
			(pin_names
				(offset 1.016)
			)
			(exclude_from_sim no)
			(in_bom yes)
			(on_board yes)
			(property "Reference" "U"
				(at 2.54 1.27 0)
				(effects
					(font
						(size 1.27 1.27)
					)
				)
			)
			(property "Value" "Device_VA-metter5W"
				(at 5.08 -7.62 0)
				(effects
					(font
						(size 1.27 1.27)
					)
				)
			)
			(property "Footprint" ""
				(at 0 0 0)
				(effects
					(font
						(size 1.27 1.27)
					)
					(hide yes)
				)
			)
			(property "Datasheet" ""
				(at 0 0 0)
				(effects
					(font
						(size 1.27 1.27)
					)
					(hide yes)
				)
			)
			(property "Description" ""
				(at 0 0 0)
				(effects
					(font
						(size 1.27 1.27)
					)
					(hide yes)
				)
			)
			(symbol "VA-metter5W-Device_0_1"
				(rectangle
					(start -3.81 0)
					(end 12.7 -15.24)
					(stroke
						(width 0)
						(type solid)
					)
					(fill
						(type background)
					)
				)
			)
			(symbol "VA-metter5W-Device_1_1"
				(pin passive line
					(at -8.89 -2.54 0)
					(length 5.08)
					(name "yellow"
						(effects
							(font
								(size 1.27 1.27)
							)
						)
					)
					(number "1"
						(effects
							(font
								(size 1.27 1.27)
							)
						)
					)
				)
				(pin passive line
					(at 17.78 -2.54 180)
					(length 5.08)
					(name "red"
						(effects
							(font
								(size 1.27 1.27)
							)
						)
					)
					(number "2"
						(effects
							(font
								(size 1.27 1.27)
							)
						)
					)
				)
				(pin passive line
					(at -8.89 -11.43 0)
					(length 5.08)
					(name "black"
						(effects
							(font
								(size 1.27 1.27)
							)
						)
					)
					(number "3"
						(effects
							(font
								(size 1.27 1.27)
							)
						)
					)
				)
				(pin passive line
					(at 17.78 -11.43 180)
					(length 5.08)
					(name "BIGRED"
						(effects
							(font
								(size 1.27 1.27)
							)
						)
					)
					(number "4"
						(effects
							(font
								(size 1.27 1.27)
							)
						)
					)
				)
				(pin passive line
					(at 17.78 -13.97 180)
					(length 5.08)
					(name "BIGBLACK"
						(effects
							(font
								(size 1.27 1.27)
							)
						)
					)
					(number "5"
						(effects
							(font
								(size 1.27 1.27)
							)
						)
					)
				)
			)
		)
	)
	(junction
		(at 158.75 93.98)
		(diameter 0)
		(color 0 0 0 0)
		(uuid "05e89e7e-a5aa-4d47-b92b-ef2b6c65084f")
	)
	(junction
		(at 95.25 73.66)
		(diameter 0)
		(color 0 0 0 0)
		(uuid "19290333-6049-4560-834b-145a64ec5f47")
	)
	(junction
		(at 82.55 73.66)
		(diameter 0)
		(color 0 0 0 0)
		(uuid "22beb5ba-df5b-4a2b-b6f9-d69e05b7b6ef")
	)
	(junction
		(at 76.2 175.26)
		(diameter 0)
		(color 0 0 0 0)
		(uuid "28e08240-bf85-49aa-b577-032669547a25")
	)
	(junction
		(at 50.8 49.53)
		(diameter 0)
		(color 0 0 0 0)
		(uuid "4c12e1af-e208-413b-9b78-1ef6d725011f")
	)
	(junction
		(at 50.8 53.34)
		(diameter 0)
		(color 0 0 0 0)
		(uuid "64f41068-455f-4b6c-b167-a8fb16e7dc84")
	)
	(junction
		(at 50.8 57.15)
		(diameter 0)
		(color 0 0 0 0)
		(uuid "74397f23-671d-4826-a606-0723e9f43d71")
	)
	(junction
		(at 76.2 154.94)
		(diameter 0)
		(color 0 0 0 0)
		(uuid "751c64f4-6b09-44b2-92b4-399e1cd83443")
	)
	(junction
		(at 241.3 38.1)
		(diameter 0)
		(color 0 0 0 0)
		(uuid "93153abe-4db5-4718-96e8-3df81798ed9e")
	)
	(junction
		(at 63.5 153.67)
		(diameter 0)
		(color 0 0 0 0)
		(uuid "96d5b81e-1cc9-4b86-ab26-34f1ebdf15c9")
	)
	(junction
		(at 190.5 38.1)
		(diameter 0)
		(color 0 0 0 0)
		(uuid "ab2ab013-122c-4b5e-b403-a5ae1f11165a")
	)
	(junction
		(at 226.06 60.96)
		(diameter 0)
		(color 0 0 0 0)
		(uuid "af0d6bfd-7856-400d-a56f-1bb77a172bc0")
	)
	(junction
		(at 63.5 175.26)
		(diameter 0)
		(color 0 0 0 0)
		(uuid "bb8860b0-f90a-4624-b0da-0c05caa2591b")
	)
	(junction
		(at 63.5 154.94)
		(diameter 0)
		(color 0 0 0 0)
		(uuid "be615377-8e01-4e33-b83a-9c8aa348cb5b")
	)
	(junction
		(at 63.5 173.99)
		(diameter 0)
		(color 0 0 0 0)
		(uuid "c0ecab07-9ba3-4ec4-b26c-b66344666c36")
	)
	(junction
		(at 173.99 38.1)
		(diameter 0)
		(color 0 0 0 0)
		(uuid "d653029b-6fb7-4257-857d-903daec71b3e")
	)
	(junction
		(at 127 167.64)
		(diameter 0)
		(color 0 0 0 0)
		(uuid "e8ac7429-2163-430c-a0e9-5ee372da1f03")
	)
	(junction
		(at 50.8 36.83)
		(diameter 0)
		(color 0 0 0 0)
		(uuid "f5bc9fe7-2905-40e0-a29b-32e45f6fb9a2")
	)
	(no_connect
		(at 146.05 165.1)
		(uuid "15f0b391-24dc-4944-b1ea-cf1e9b2bf8d5")
	)
	(wire
		(pts
			(xy 45.72 57.15) (xy 45.72 63.5)
		)
		(stroke
			(width 0)
			(type default)
		)
		(uuid "02787330-af3b-4bb2-83bd-0c7e0e941160")
	)
	(wire
		(pts
			(xy 241.3 38.1) (xy 241.3 40.64)
		)
		(stroke
			(width 0)
			(type default)
		)
		(uuid "084fbd4f-d2d0-41de-b018-e7a78b88ba85")
	)
	(wire
		(pts
			(xy 133.35 76.2) (xy 128.27 76.2)
		)
		(stroke
			(width 0)
			(type default)
		)
		(uuid "09096865-039c-464e-9488-f8f968838585")
	)
	(wire
		(pts
			(xy 234.95 81.28) (xy 234.95 93.98)
		)
		(stroke
			(width 0)
			(type default)
		)
		(uuid "157af85c-044a-4826-bb87-8f85c7794500")
	)
	(wire
		(pts
			(xy 234.95 63.5) (xy 234.95 60.96)
		)
		(stroke
			(width 0)
			(type default)
		)
		(uuid "168a6153-566e-4b04-836e-2c4a57d3ec13")
	)
	(wire
		(pts
			(xy 95.25 86.36) (xy 95.25 90.17)
		)
		(stroke
			(width 0)
			(type default)
		)
		(uuid "187fbe65-42da-4ee3-bb2d-2a8ccf277576")
	)
	(wire
		(pts
			(xy 173.99 38.1) (xy 158.75 38.1)
		)
		(stroke
			(width 0)
			(type default)
		)
		(uuid "1a0d14ec-82f3-4270-baee-d79775a87e4f")
	)
	(wire
		(pts
			(xy 226.06 53.34) (xy 226.06 60.96)
		)
		(stroke
			(width 0)
			(type default)
		)
		(uuid "1af5f047-b64a-42c2-a7e7-d5898d8d0b82")
	)
	(wire
		(pts
			(xy 234.95 93.98) (xy 158.75 93.98)
		)
		(stroke
			(width 0)
			(type default)
		)
		(uuid "1ba66b11-59a1-4cea-9383-b2534d627d19")
	)
	(wire
		(pts
			(xy 50.8 49.53) (xy 50.8 53.34)
		)
		(stroke
			(width 0)
			(type default)
		)
		(uuid "210353ea-2fd6-4fdf-a92e-00fd613ce5a0")
	)
	(wire
		(pts
			(xy 48.26 63.5) (xy 45.72 63.5)
		)
		(stroke
			(width 0)
			(type default)
		)
		(uuid "25374b5f-2fc1-4553-8c79-8c59fd282c1e")
	)
	(wire
		(pts
			(xy 66.04 53.34) (xy 50.8 53.34)
		)
		(stroke
			(width 0)
			(type default)
		)
		(uuid "26dec20e-906a-4a8e-9e14-1d5ff119d392")
	)
	(wire
		(pts
			(xy 88.9 168.91) (xy 88.9 175.26)
		)
		(stroke
			(width 0)
			(type default)
		)
		(uuid "278b4bc7-0731-41bf-9343-fe443e166cce")
	)
	(wire
		(pts
			(xy 191.77 87.63) (xy 191.77 81.28)
		)
		(stroke
			(width 0)
			(type default)
		)
		(uuid "280afc41-d354-4121-8e56-03d2e3ec9c5c")
	)
	(wire
		(pts
			(xy 25.4 36.83) (xy 50.8 36.83)
		)
		(stroke
			(width 0)
			(type default)
		)
		(uuid "297eae8b-8235-4691-b705-6e94fa403907")
	)
	(wire
		(pts
			(xy 50.8 49.53) (xy 35.56 49.53)
		)
		(stroke
			(width 0)
			(type default)
		)
		(uuid "2afd3e71-6abb-4006-9f5d-6d5b7c60dc3d")
	)
	(wire
		(pts
			(xy 241.3 48.26) (xy 241.3 50.8)
		)
		(stroke
			(width 0)
			(type default)
		)
		(uuid "2bcaa65d-a8ec-4357-bc1e-2cce008e315e")
	)
	(wire
		(pts
			(xy 106.68 93.98) (xy 106.68 78.74)
		)
		(stroke
			(width 0)
			(type default)
		)
		(uuid "2c7301ed-6591-460c-b55e-b57947c76dd4")
	)
	(wire
		(pts
			(xy 76.2 175.26) (xy 63.5 175.26)
		)
		(stroke
			(width 0)
			(type default)
		)
		(uuid "318b9082-edef-4546-95e8-80835b79d0be")
	)
	(wire
		(pts
			(xy 45.72 57.15) (xy 50.8 57.15)
		)
		(stroke
			(width 0)
			(type default)
		)
		(uuid "37527f38-3342-4324-80e6-48bbce297fd4")
	)
	(wire
		(pts
			(xy 256.54 68.58) (xy 259.08 68.58)
		)
		(stroke
			(width 0)
			(type default)
		)
		(uuid "37bef300-15e0-489a-a96d-60970995b7fc")
	)
	(wire
		(pts
			(xy 130.81 167.64) (xy 127 167.64)
		)
		(stroke
			(width 0)
			(type default)
		)
		(uuid "3d15b8b7-1c66-4460-b891-1371bf284871")
	)
	(wire
		(pts
			(xy 256.54 38.1) (xy 256.54 68.58)
		)
		(stroke
			(width 0)
			(type default)
		)
		(uuid "3f88858f-3339-4c37-a39c-3f57e76d015b")
	)
	(wire
		(pts
			(xy 234.95 71.12) (xy 234.95 73.66)
		)
		(stroke
			(width 0)
			(type default)
		)
		(uuid "3fdf1650-d07d-424b-bb7c-7280ea08e341")
	)
	(wire
		(pts
			(xy 158.75 38.1) (xy 158.75 68.58)
		)
		(stroke
			(width 0)
			(type default)
		)
		(uuid "4050c88e-1dd7-4556-9af4-fc2fb0967faf")
	)
	(wire
		(pts
			(xy 173.99 38.1) (xy 190.5 38.1)
		)
		(stroke
			(width 0)
			(type default)
		)
		(uuid "46226660-ac26-410c-8eca-8fe238886a16")
	)
	(wire
		(pts
			(xy 35.56 49.53) (xy 35.56 50.8)
		)
		(stroke
			(width 0)
			(type default)
		)
		(uuid "482272a6-3626-47d8-a12b-91f3a83ee412")
	)
	(wire
		(pts
			(xy 222.25 81.28) (xy 234.95 81.28)
		)
		(stroke
			(width 0)
			(type default)
		)
		(uuid "49e325bb-4794-4829-bc9f-ca93fcf449ab")
	)
	(wire
		(pts
			(xy 246.38 38.1) (xy 241.3 38.1)
		)
		(stroke
			(width 0)
			(type default)
		)
		(uuid "4c89b7ec-ce92-4b5a-8e09-ec0ee5b6a612")
	)
	(wire
		(pts
			(xy 76.2 157.48) (xy 76.2 154.94)
		)
		(stroke
			(width 0)
			(type default)
		)
		(uuid "524e882c-6828-41c6-b186-ca6d2e08ebd8")
	)
	(wire
		(pts
			(xy 50.8 57.15) (xy 50.8 60.96)
		)
		(stroke
			(width 0)
			(type default)
		)
		(uuid "53ba1648-f060-469a-b5ac-95201e4ff351")
	)
	(wire
		(pts
			(xy 190.5 72.39) (xy 190.5 38.1)
		)
		(stroke
			(width 0)
			(type default)
		)
		(uuid "54568ac2-23b8-485d-a68c-25c5dfc59697")
	)
	(wire
		(pts
			(xy 173.99 48.26) (xy 173.99 50.8)
		)
		(stroke
			(width 0)
			(type default)
		)
		(uuid "58c34800-3e24-4efd-a9d8-99b04ae45eba")
	)
	(wire
		(pts
			(xy 63.5 166.37) (xy 63.5 173.99)
		)
		(stroke
			(width 0)
			(type default)
		)
		(uuid "5db2650b-9e91-4381-bcde-a67bee81089f")
	)
	(wire
		(pts
			(xy 50.8 66.04) (xy 50.8 69.85)
		)
		(stroke
			(width 0)
			(type default)
		)
		(uuid "6031ebb9-91d1-4de7-a9c0-30d533e8a7ce")
	)
	(wire
		(pts
			(xy 158.75 93.98) (xy 106.68 93.98)
		)
		(stroke
			(width 0)
			(type default)
		)
		(uuid "66f7409b-9d5f-4c38-9666-aa1ba470339c")
	)
	(wire
		(pts
			(xy 234.95 60.96) (xy 226.06 60.96)
		)
		(stroke
			(width 0)
			(type default)
		)
		(uuid "6c847aa8-79ba-491d-8bcc-0c9c79f27c4d")
	)
	(wire
		(pts
			(xy 226.06 83.82) (xy 222.25 83.82)
		)
		(stroke
			(width 0)
			(type default)
		)
		(uuid "715dd5f1-f7b6-4d77-bd22-f417a65f0eb9")
	)
	(wire
		(pts
			(xy 76.2 154.94) (xy 63.5 154.94)
		)
		(stroke
			(width 0)
			(type default)
		)
		(uuid "73077b46-a797-41a8-8d13-468f2d30497e")
	)
	(wire
		(pts
			(xy 63.5 154.94) (xy 63.5 153.67)
		)
		(stroke
			(width 0)
			(type default)
		)
		(uuid "75467bc9-4e1d-41a3-b759-f499dc1b7822")
	)
	(wire
		(pts
			(xy 127 167.64) (xy 127 179.07)
		)
		(stroke
			(width 0)
			(type default)
		)
		(uuid "762bd512-d42b-4b71-8381-a7f437ac251f")
	)
	(wire
		(pts
			(xy 140.97 76.2) (xy 151.13 76.2)
		)
		(stroke
			(width 0)
			(type default)
		)
		(uuid "798d01ca-685b-4d56-8ae2-59eff5ae7b61")
	)
	(wire
		(pts
			(xy 106.68 78.74) (xy 113.03 78.74)
		)
		(stroke
			(width 0)
			(type default)
		)
		(uuid "7c4c3da2-70fe-497b-9678-1ceb8795246c")
	)
	(wire
		(pts
			(xy 63.5 175.26) (xy 63.5 179.07)
		)
		(stroke
			(width 0)
			(type default)
		)
		(uuid "7fb79517-11d9-4b11-bdcf-f33df7a4aa13")
	)
	(wire
		(pts
			(xy 173.99 40.64) (xy 173.99 38.1)
		)
		(stroke
			(width 0)
			(type default)
		)
		(uuid "80d9f33f-07cd-4163-aed1-ab1c5b535491")
	)
	(wire
		(pts
			(xy 63.5 173.99) (xy 63.5 175.26)
		)
		(stroke
			(width 0)
			(type default)
		)
		(uuid "814405c1-a680-4ffa-91d6-514cd2e459c5")
	)
	(wire
		(pts
			(xy 190.5 38.1) (xy 241.3 38.1)
		)
		(stroke
			(width 0)
			(type default)
		)
		(uuid "872347f5-1226-4a31-9230-df8a9648e51d")
	)
	(wire
		(pts
			(xy 50.8 36.83) (xy 50.8 39.37)
		)
		(stroke
			(width 0)
			(type default)
		)
		(uuid "8878eac3-e4be-4a6c-a02d-6e6ee59732ed")
	)
	(wire
		(pts
			(xy 76.2 172.72) (xy 76.2 175.26)
		)
		(stroke
			(width 0)
			(type default)
		)
		(uuid "8893989f-97bb-49a0-83e9-d378803a8e59")
	)
	(wire
		(pts
			(xy 50.8 53.34) (xy 50.8 57.15)
		)
		(stroke
			(width 0)
			(type default)
		)
		(uuid "957cd029-90c6-4c50-8ce8-d68ff2e7a718")
	)
	(wire
		(pts
			(xy 226.06 60.96) (xy 226.06 72.39)
		)
		(stroke
			(width 0)
			(type default)
		)
		(uuid "9b4ee8d4-7229-4241-9c3a-720f937e11c1")
	)
	(wire
		(pts
			(xy 50.8 163.83) (xy 63.5 163.83)
		)
		(stroke
			(width 0)
			(type default)
		)
		(uuid "9b5fc8ae-45ec-4a63-a6e4-a6606162b625")
	)
	(wire
		(pts
			(xy 226.06 72.39) (xy 222.25 72.39)
		)
		(stroke
			(width 0)
			(type default)
		)
		(uuid "a14e6668-8de2-45fb-9765-ce1d0a6f86b6")
	)
	(wire
		(pts
			(xy 82.55 71.12) (xy 82.55 73.66)
		)
		(stroke
			(width 0)
			(type default)
		)
		(uuid "a4044026-e55a-4596-805f-4593ce811d92")
	)
	(wire
		(pts
			(xy 66.04 64.77) (xy 66.04 69.85)
		)
		(stroke
			(width 0)
			(type default)
		)
		(uuid "ad7a37f0-0c5e-4456-92a0-0f9c3d9f9746")
	)
	(wire
		(pts
			(xy 256.54 38.1) (xy 254 38.1)
		)
		(stroke
			(width 0)
			(type default)
		)
		(uuid "b0921dfd-3fc6-498b-a250-a7ee5e535684")
	)
	(wire
		(pts
			(xy 50.8 46.99) (xy 50.8 49.53)
		)
		(stroke
			(width 0)
			(type default)
		)
		(uuid "b2b64c6d-fa71-4b62-9315-b30765acae43")
	)
	(wire
		(pts
			(xy 35.56 58.42) (xy 35.56 69.85)
		)
		(stroke
			(width 0)
			(type default)
		)
		(uuid "b9452bb8-0827-4f40-8f9f-e62d5ea1a6ba")
	)
	(wire
		(pts
			(xy 191.77 81.28) (xy 195.58 81.28)
		)
		(stroke
			(width 0)
			(type default)
		)
		(uuid "ba0855fe-cd59-444c-98a6-5a204fcc8717")
	)
	(wire
		(pts
			(xy 195.58 72.39) (xy 190.5 72.39)
		)
		(stroke
			(width 0)
			(type default)
		)
		(uuid "bcbaa171-cc58-44d1-b252-6e18ab3cde53")
	)
	(wire
		(pts
			(xy 25.4 39.37) (xy 25.4 36.83)
		)
		(stroke
			(width 0)
			(type default)
		)
		(uuid "c178be58-89bc-4154-871d-78945e9652c2")
	)
	(wire
		(pts
			(xy 63.5 163.83) (xy 63.5 154.94)
		)
		(stroke
			(width 0)
			(type default)
		)
		(uuid "c2151a78-d3fd-444a-ad4c-23c2ba3be113")
	)
	(wire
		(pts
			(xy 76.2 175.26) (xy 88.9 175.26)
		)
		(stroke
			(width 0)
			(type default)
		)
		(uuid "c32fb4ee-15a2-4228-a1ab-743cb4621c63")
	)
	(wire
		(pts
			(xy 88.9 154.94) (xy 88.9 161.29)
		)
		(stroke
			(width 0)
			(type default)
		)
		(uuid "c5359c32-a732-45ba-9b23-a90390e56d6e")
	)
	(wire
		(pts
			(xy 95.25 78.74) (xy 95.25 73.66)
		)
		(stroke
			(width 0)
			(type default)
		)
		(uuid "c7a20fad-da77-4262-b78d-08c52a716517")
	)
	(wire
		(pts
			(xy 173.99 58.42) (xy 173.99 60.96)
		)
		(stroke
			(width 0)
			(type default)
		)
		(uuid "c96b8ebe-6930-4c9c-a490-276d0362ed46")
	)
	(wire
		(pts
			(xy 127 162.56) (xy 130.81 162.56)
		)
		(stroke
			(width 0)
			(type default)
		)
		(uuid "cd5eb288-fd6f-4f96-b5b0-fc039140f654")
	)
	(wire
		(pts
			(xy 95.25 73.66) (xy 82.55 73.66)
		)
		(stroke
			(width 0)
			(type default)
		)
		(uuid "cdef9508-a80a-4523-a09a-4d55827e9f10")
	)
	(wire
		(pts
			(xy 76.2 154.94) (xy 88.9 154.94)
		)
		(stroke
			(width 0)
			(type default)
		)
		(uuid "cff78763-cbfa-4619-b12a-a7b9f7783691")
	)
	(wire
		(pts
			(xy 63.5 153.67) (xy 63.5 151.13)
		)
		(stroke
			(width 0)
			(type default)
		)
		(uuid "d1206633-e335-465a-a38d-3c3259b1184c")
	)
	(wire
		(pts
			(xy 66.04 77.47) (xy 66.04 90.17)
		)
		(stroke
			(width 0)
			(type default)
		)
		(uuid "d180a4d5-73b2-4558-a4c3-7e358deb6428")
	)
	(wire
		(pts
			(xy 113.03 73.66) (xy 95.25 73.66)
		)
		(stroke
			(width 0)
			(type default)
		)
		(uuid "e35615cf-4177-4aa7-8b5f-71e386a2844f")
	)
	(wire
		(pts
			(xy 25.4 46.99) (xy 25.4 50.8)
		)
		(stroke
			(width 0)
			(type default)
		)
		(uuid "e4c8eb55-cc09-4c1e-88e5-a8797ef84319")
	)
	(wire
		(pts
			(xy 82.55 73.66) (xy 69.85 73.66)
		)
		(stroke
			(width 0)
			(type default)
		)
		(uuid "e898afbf-8a02-4a70-a25a-d473c6121916")
	)
	(wire
		(pts
			(xy 158.75 78.74) (xy 158.75 93.98)
		)
		(stroke
			(width 0)
			(type default)
		)
		(uuid "eca4dcd8-188a-4e09-98c8-9282e5bdb9b7")
	)
	(wire
		(pts
			(xy 50.8 166.37) (xy 63.5 166.37)
		)
		(stroke
			(width 0)
			(type default)
		)
		(uuid "ef36fd5d-2d89-438e-badb-90b670150bb5")
	)
	(wire
		(pts
			(xy 50.8 26.67) (xy 50.8 36.83)
		)
		(stroke
			(width 0)
			(type default)
		)
		(uuid "ef5c15a5-3c23-460b-a32e-ccd088e6ad03")
	)
	(wire
		(pts
			(xy 256.54 71.12) (xy 256.54 96.52)
		)
		(stroke
			(width 0)
			(type default)
		)
		(uuid "f4dbafcc-8e12-4ca5-88a5-925320d1779c")
	)
	(wire
		(pts
			(xy 127 167.64) (xy 127 162.56)
		)
		(stroke
			(width 0)
			(type default)
		)
		(uuid "f6bb1972-108c-41a1-b347-e6ee8683ffa5")
	)
	(wire
		(pts
			(xy 66.04 57.15) (xy 66.04 53.34)
		)
		(stroke
			(width 0)
			(type default)
		)
		(uuid "f7ee152b-fb50-42af-bc5d-616e18d237ea")
	)
	(wire
		(pts
			(xy 259.08 71.12) (xy 256.54 71.12)
		)
		(stroke
			(width 0)
			(type default)
		)
		(uuid "f95b43db-e219-4ca5-964b-3598a4d41a44")
	)
	(wire
		(pts
			(xy 226.06 87.63) (xy 226.06 83.82)
		)
		(stroke
			(width 0)
			(type default)
		)
		(uuid "fe7e05b7-482a-48b3-9f2d-603fc89a790b")
	)
	(symbol
		(lib_id "cp0104-rescue:Conn_01x02_Male-Connector")
		(at 45.72 163.83 0)
		(unit 1)
		(exclude_from_sim no)
		(in_bom yes)
		(on_board yes)
		(dnp no)
		(uuid "00000000-0000-0000-0000-0000616cf552")
		(property "Reference" "J1"
			(at 48.4632 159.2326 0)
			(effects
				(font
					(size 1.27 1.27)
				)
			)
		)
		(property "Value" "Power_12v"
			(at 48.4632 161.544 0)
			(effects
				(font
					(size 1.27 1.27)
				)
			)
		)
		(property "Footprint" "Connector_BarrelJack:BarrelJack_CUI_PJ-063AH_Horizontal"
			(at 45.72 163.83 0)
			(effects
				(font
					(size 1.27 1.27)
				)
				(hide yes)
			)
		)
		(property "Datasheet" "~"
			(at 45.72 163.83 0)
			(effects
				(font
					(size 1.27 1.27)
				)
				(hide yes)
			)
		)
		(property "Description" ""
			(at 45.72 163.83 0)
			(effects
				(font
					(size 1.27 1.27)
				)
				(hide yes)
			)
		)
		(pin "1"
			(uuid "af9bdeef-ad8c-447c-9cbe-98506156a23d")
		)
		(pin "2"
			(uuid "6c7eff4e-26a6-4b85-9bde-59351f5587be")
		)
		(instances
			(project "cp0104"
				(path "/c5e21742-b4da-46ed-8f1f-40e1fee34745"
					(reference "J1")
					(unit 1)
				)
			)
		)
	)
	(symbol
		(lib_id "cp0104-rescue:+12V-power")
		(at 63.5 151.13 0)
		(unit 1)
		(exclude_from_sim no)
		(in_bom yes)
		(on_board yes)
		(dnp no)
		(uuid "00000000-0000-0000-0000-0000616cfc41")
		(property "Reference" "#PWR01"
			(at 63.5 154.94 0)
			(effects
				(font
					(size 1.27 1.27)
				)
				(hide yes)
			)
		)
		(property "Value" "+12V"
			(at 63.881 146.7358 0)
			(effects
				(font
					(size 1.27 1.27)
				)
			)
		)
		(property "Footprint" ""
			(at 63.5 151.13 0)
			(effects
				(font
					(size 1.27 1.27)
				)
				(hide yes)
			)
		)
		(property "Datasheet" ""
			(at 63.5 151.13 0)
			(effects
				(font
					(size 1.27 1.27)
				)
				(hide yes)
			)
		)
		(property "Description" ""
			(at 63.5 151.13 0)
			(effects
				(font
					(size 1.27 1.27)
				)
				(hide yes)
			)
		)
		(pin "1"
			(uuid "2ade85d6-6ada-43e6-99a0-c35bf0a7bb18")
		)
		(instances
			(project "cp0104"
				(path "/c5e21742-b4da-46ed-8f1f-40e1fee34745"
					(reference "#PWR01")
					(unit 1)
				)
			)
		)
	)
	(symbol
		(lib_id "cp0104-rescue:GND-power")
		(at 63.5 179.07 0)
		(unit 1)
		(exclude_from_sim no)
		(in_bom yes)
		(on_board yes)
		(dnp no)
		(uuid "00000000-0000-0000-0000-0000616d012c")
		(property "Reference" "#PWR02"
			(at 63.5 185.42 0)
			(effects
				(font
					(size 1.27 1.27)
				)
				(hide yes)
			)
		)
		(property "Value" "GND"
			(at 63.627 183.4642 0)
			(effects
				(font
					(size 1.27 1.27)
				)
			)
		)
		(property "Footprint" ""
			(at 63.5 179.07 0)
			(effects
				(font
					(size 1.27 1.27)
				)
				(hide yes)
			)
		)
		(property "Datasheet" ""
			(at 63.5 179.07 0)
			(effects
				(font
					(size 1.27 1.27)
				)
				(hide yes)
			)
		)
		(property "Description" ""
			(at 63.5 179.07 0)
			(effects
				(font
					(size 1.27 1.27)
				)
				(hide yes)
			)
		)
		(pin "1"
			(uuid "bc8f92e0-6b5f-4ecf-b491-530d1bdc6406")
		)
		(instances
			(project "cp0104"
				(path "/c5e21742-b4da-46ed-8f1f-40e1fee34745"
					(reference "#PWR02")
					(unit 1)
				)
			)
		)
	)
	(symbol
		(lib_id "Amplifier_Operational:LM358")
		(at 78.74 165.1 0)
		(unit 3)
		(exclude_from_sim no)
		(in_bom yes)
		(on_board yes)
		(dnp no)
		(uuid "00000000-0000-0000-0000-0000616d0f3e")
		(property "Reference" "U1"
			(at 77.6732 163.9316 0)
			(effects
				(font
					(size 1.27 1.27)
				)
				(justify left)
			)
		)
		(property "Value" "LM358"
			(at 77.6732 166.243 0)
			(effects
				(font
					(size 1.27 1.27)
				)
				(justify left)
			)
		)
		(property "Footprint" "Package_DIP:DIP-8_W7.62mm"
			(at 78.74 165.1 0)
			(effects
				(font
					(size 1.27 1.27)
				)
				(hide yes)
			)
		)
		(property "Datasheet" "http://www.ti.com/lit/ds/symlink/lm2904-n.pdf"
			(at 78.74 165.1 0)
			(effects
				(font
					(size 1.27 1.27)
				)
				(hide yes)
			)
		)
		(property "Description" ""
			(at 78.74 165.1 0)
			(effects
				(font
					(size 1.27 1.27)
				)
				(hide yes)
			)
		)
		(pin "8"
			(uuid "13035bea-f6ee-4992-b45a-8a29bc7e22d7")
		)
		(pin "4"
			(uuid "8809eee4-e0c3-444a-b315-f0b075419f4f")
		)
		(pin "1"
			(uuid "62145762-616a-4806-aa33-0b7a7b81069f")
		)
		(pin "7"
			(uuid "d665167c-dcd4-4282-a89d-8ce542923d89")
		)
		(pin "2"
			(uuid "b7a7dd9b-6acd-4a36-9207-c7a01d69309d")
		)
		(pin "3"
			(uuid "0d0ff584-43d2-4f5b-8d84-eeaa411b9b17")
		)
		(pin "6"
			(uuid "2c8646fa-76e6-4619-a475-763a556695c9")
		)
		(pin "5"
			(uuid "2dd79e62-d541-4e7f-8fd9-5eb797d5e1b0")
		)
		(instances
			(project "cp0104"
				(path "/c5e21742-b4da-46ed-8f1f-40e1fee34745"
					(reference "U1")
					(unit 3)
				)
			)
		)
	)
	(symbol
		(lib_id "Amplifier_Operational:LM358")
		(at 138.43 165.1 0)
		(unit 2)
		(exclude_from_sim no)
		(in_bom yes)
		(on_board yes)
		(dnp no)
		(uuid "00000000-0000-0000-0000-0000616d2a28")
		(property "Reference" "U1"
			(at 138.43 155.7782 0)
			(effects
				(font
					(size 1.27 1.27)
				)
			)
		)
		(property "Value" "LM358"
			(at 138.43 158.0896 0)
			(effects
				(font
					(size 1.27 1.27)
				)
			)
		)
		(property "Footprint" "Package_DIP:DIP-8_W7.62mm"
			(at 138.43 165.1 0)
			(effects
				(font
					(size 1.27 1.27)
				)
				(hide yes)
			)
		)
		(property "Datasheet" "http://www.ti.com/lit/ds/symlink/lm2904-n.pdf"
			(at 138.43 165.1 0)
			(effects
				(font
					(size 1.27 1.27)
				)
				(hide yes)
			)
		)
		(property "Description" ""
			(at 138.43 165.1 0)
			(effects
				(font
					(size 1.27 1.27)
				)
				(hide yes)
			)
		)
		(pin "8"
			(uuid "4593a9c9-ac4e-437e-a054-b6e27e17d0fd")
		)
		(pin "6"
			(uuid "b959d6f2-399e-4ecc-b44b-b847081d72ac")
		)
		(pin "1"
			(uuid "3a1ae7b4-8b7e-4a0b-913b-2d1fbe9358e4")
		)
		(pin "2"
			(uuid "9ef48a02-9540-4851-95b5-fef64d620470")
		)
		(pin "3"
			(uuid "8006dcd7-7788-4251-b2b7-3f1ef70b6e78")
		)
		(pin "4"
			(uuid "84e6429d-d652-4883-8006-fcec69d35a2c")
		)
		(pin "5"
			(uuid "3fcafd7d-05d7-4931-a515-ccbf95e14a84")
		)
		(pin "7"
			(uuid "d89e4960-35c8-4f66-96de-2dc63728dba2")
		)
		(instances
			(project "cp0104"
				(path "/c5e21742-b4da-46ed-8f1f-40e1fee34745"
					(reference "U1")
					(unit 2)
				)
			)
		)
	)
	(symbol
		(lib_id "Amplifier_Operational:LM358")
		(at 120.65 76.2 0)
		(unit 1)
		(exclude_from_sim no)
		(in_bom yes)
		(on_board yes)
		(dnp no)
		(uuid "00000000-0000-0000-0000-0000616d43cf")
		(property "Reference" "U1"
			(at 120.65 66.8782 0)
			(effects
				(font
					(size 1.27 1.27)
				)
			)
		)
		(property "Value" "LM358"
			(at 120.65 69.1896 0)
			(effects
				(font
					(size 1.27 1.27)
				)
			)
		)
		(property "Footprint" "Package_DIP:DIP-8_W7.62mm"
			(at 120.65 76.2 0)
			(effects
				(font
					(size 1.27 1.27)
				)
				(hide yes)
			)
		)
		(property "Datasheet" "http://www.ti.com/lit/ds/symlink/lm2904-n.pdf"
			(at 120.65 76.2 0)
			(effects
				(font
					(size 1.27 1.27)
				)
				(hide yes)
			)
		)
		(property "Description" ""
			(at 120.65 76.2 0)
			(effects
				(font
					(size 1.27 1.27)
				)
				(hide yes)
			)
		)
		(pin "5"
			(uuid "5502be10-d617-411e-9852-2315f7c36486")
		)
		(pin "7"
			(uuid "d5806c08-20d0-411d-a8fd-d5e46e211e68")
		)
		(pin "2"
			(uuid "927ea8a6-ea86-48cd-9576-a3ee65a68c1d")
		)
		(pin "3"
			(uuid "cea65d36-ae82-4b6d-8b67-0809871fe329")
		)
		(pin "6"
			(uuid "cbe142da-91d6-4397-9cb5-f37a65bad6bc")
		)
		(pin "1"
			(uuid "ed0452d3-25bd-44f8-bab6-040dc9119727")
		)
		(pin "8"
			(uuid "63f3230c-4ae6-490f-985b-03c7a37db768")
		)
		(pin "4"
			(uuid "56a81d01-9858-42d0-a124-bc51bacdba86")
		)
		(instances
			(project "cp0104"
				(path "/c5e21742-b4da-46ed-8f1f-40e1fee34745"
					(reference "U1")
					(unit 1)
				)
			)
		)
	)
	(symbol
		(lib_id "Device:C")
		(at 88.9 165.1 0)
		(unit 1)
		(exclude_from_sim no)
		(in_bom yes)
		(on_board yes)
		(dnp no)
		(uuid "00000000-0000-0000-0000-0000616d6a06")
		(property "Reference" "C1"
			(at 91.821 163.9316 0)
			(effects
				(font
					(size 1.27 1.27)
				)
				(justify left)
			)
		)
		(property "Value" "100n"
			(at 91.821 166.243 0)
			(effects
				(font
					(size 1.27 1.27)
				)
				(justify left)
			)
		)
		(property "Footprint" "Capacitor_SMD:C_0603_1608Metric"
			(at 89.8652 168.91 0)
			(effects
				(font
					(size 1.27 1.27)
				)
				(hide yes)
			)
		)
		(property "Datasheet" "~"
			(at 88.9 165.1 0)
			(effects
				(font
					(size 1.27 1.27)
				)
				(hide yes)
			)
		)
		(property "Description" ""
			(at 88.9 165.1 0)
			(effects
				(font
					(size 1.27 1.27)
				)
				(hide yes)
			)
		)
		(pin "1"
			(uuid "acb1353d-5bb8-40be-a3c8-320a233ba7c8")
		)
		(pin "2"
			(uuid "2df2caa1-b637-461e-a034-4c9701a8ac31")
		)
		(instances
			(project "cp0104"
				(path "/c5e21742-b4da-46ed-8f1f-40e1fee34745"
					(reference "C1")
					(unit 1)
				)
			)
		)
	)
	(symbol
		(lib_id "cp0104-rescue:+12V-power")
		(at 50.8 26.67 0)
		(unit 1)
		(exclude_from_sim no)
		(in_bom yes)
		(on_board yes)
		(dnp no)
		(uuid "00000000-0000-0000-0000-0000616db7bf")
		(property "Reference" "#PWR04"
			(at 50.8 30.48 0)
			(effects
				(font
					(size 1.27 1.27)
				)
				(hide yes)
			)
		)
		(property "Value" "+12V"
			(at 51.181 22.2758 0)
			(effects
				(font
					(size 1.27 1.27)
				)
			)
		)
		(property "Footprint" ""
			(at 50.8 26.67 0)
			(effects
				(font
					(size 1.27 1.27)
				)
				(hide yes)
			)
		)
		(property "Datasheet" ""
			(at 50.8 26.67 0)
			(effects
				(font
					(size 1.27 1.27)
				)
				(hide yes)
			)
		)
		(property "Description" ""
			(at 50.8 26.67 0)
			(effects
				(font
					(size 1.27 1.27)
				)
				(hide yes)
			)
		)
		(pin "1"
			(uuid "2fcdc809-7d38-4f14-96eb-5ec518b84916")
		)
		(instances
			(project "cp0104"
				(path "/c5e21742-b4da-46ed-8f1f-40e1fee34745"
					(reference "#PWR04")
					(unit 1)
				)
			)
		)
	)
	(symbol
		(lib_id "Device:D_Zener")
		(at 25.4 43.18 270)
		(unit 1)
		(exclude_from_sim no)
		(in_bom yes)
		(on_board yes)
		(dnp no)
		(uuid "00000000-0000-0000-0000-0000616dc479")
		(property "Reference" "D1"
			(at 27.432 42.0116 90)
			(effects
				(font
					(size 1.27 1.27)
				)
				(justify left)
			)
		)
		(property "Value" "TVS12v"
			(at 27.432 44.323 90)
			(effects
				(font
					(size 1.27 1.27)
				)
				(justify left)
			)
		)
		(property "Footprint" "Diode_THT:D_5W_P12.70mm_Horizontal"
			(at 25.4 43.18 0)
			(effects
				(font
					(size 1.27 1.27)
				)
				(hide yes)
			)
		)
		(property "Datasheet" "~"
			(at 25.4 43.18 0)
			(effects
				(font
					(size 1.27 1.27)
				)
				(hide yes)
			)
		)
		(property "Description" ""
			(at 25.4 43.18 0)
			(effects
				(font
					(size 1.27 1.27)
				)
				(hide yes)
			)
		)
		(pin "2"
			(uuid "d37b0e87-d605-4d7a-8b72-b0a047796e43")
		)
		(pin "1"
			(uuid "69afb9b4-383e-4ab0-8ac6-d2796c977dd1")
		)
		(instances
			(project "cp0104"
				(path "/c5e21742-b4da-46ed-8f1f-40e1fee34745"
					(reference "D1")
					(unit 1)
				)
			)
		)
	)
	(symbol
		(lib_id "Device:R_US")
		(at 50.8 43.18 0)
		(unit 1)
		(exclude_from_sim no)
		(in_bom yes)
		(on_board yes)
		(dnp no)
		(uuid "00000000-0000-0000-0000-0000616dcb8c")
		(property "Reference" "R1"
			(at 52.5272 42.0116 0)
			(effects
				(font
					(size 1.27 1.27)
				)
				(justify left)
			)
		)
		(property "Value" "1k"
			(at 52.5272 44.323 0)
			(effects
				(font
					(size 1.27 1.27)
				)
				(justify left)
			)
		)
		(property "Footprint" "Resistor_SMD:R_0805_2012Metric"
			(at 51.816 43.434 90)
			(effects
				(font
					(size 1.27 1.27)
				)
				(hide yes)
			)
		)
		(property "Datasheet" "~"
			(at 50.8 43.18 0)
			(effects
				(font
					(size 1.27 1.27)
				)
				(hide yes)
			)
		)
		(property "Description" ""
			(at 50.8 43.18 0)
			(effects
				(font
					(size 1.27 1.27)
				)
				(hide yes)
			)
		)
		(pin "1"
			(uuid "cc3b4194-45ef-4e0b-9865-74ff098afbb8")
		)
		(pin "2"
			(uuid "33cc81bc-ac22-4a6d-8986-8aea7d1e6cbf")
		)
		(instances
			(project "cp0104"
				(path "/c5e21742-b4da-46ed-8f1f-40e1fee34745"
					(reference "R1")
					(unit 1)
				)
			)
		)
	)
	(symbol
		(lib_id "Reference_Voltage:TL431P")
		(at 50.8 63.5 90)
		(unit 1)
		(exclude_from_sim no)
		(in_bom yes)
		(on_board yes)
		(dnp no)
		(uuid "00000000-0000-0000-0000-0000616dd844")
		(property "Reference" "U2"
			(at 52.578 62.3316 90)
			(effects
				(font
					(size 1.27 1.27)
				)
				(justify right)
			)
		)
		(property "Value" "TL431P"
			(at 52.578 64.643 90)
			(effects
				(font
					(size 1.27 1.27)
				)
				(justify right)
			)
		)
		(property "Footprint" "Package_DIP:DIP-8_W7.62mm"
			(at 54.61 63.5 0)
			(effects
				(font
					(size 1.27 1.27)
					(italic yes)
				)
				(hide yes)
			)
		)
		(property "Datasheet" "http://www.ti.com/lit/ds/symlink/tl431.pdf"
			(at 50.8 63.5 0)
			(effects
				(font
					(size 1.27 1.27)
					(italic yes)
				)
				(hide yes)
			)
		)
		(property "Description" ""
			(at 50.8 63.5 0)
			(effects
				(font
					(size 1.27 1.27)
				)
				(hide yes)
			)
		)
		(pin "8"
			(uuid "91420174-3d24-4a1a-b224-f03ee7b9bee1")
		)
		(pin "1"
			(uuid "adedae17-bf17-4b3c-aaaf-93abcd67cd61")
		)
		(pin "6"
			(uuid "cf864376-abf7-45ef-859a-0a6434fa7c70")
		)
		(instances
			(project "cp0104"
				(path "/c5e21742-b4da-46ed-8f1f-40e1fee34745"
					(reference "U2")
					(unit 1)
				)
			)
		)
	)
	(symbol
		(lib_id "cp0104-rescue:GND-power")
		(at 127 179.07 0)
		(unit 1)
		(exclude_from_sim no)
		(in_bom yes)
		(on_board yes)
		(dnp no)
		(uuid "00000000-0000-0000-0000-0000616df63d")
		(property "Reference" "#PWR03"
			(at 127 185.42 0)
			(effects
				(font
					(size 1.27 1.27)
				)
				(hide yes)
			)
		)
		(property "Value" "GND"
			(at 127.127 183.4642 0)
			(effects
				(font
					(size 1.27 1.27)
				)
			)
		)
		(property "Footprint" ""
			(at 127 179.07 0)
			(effects
				(font
					(size 1.27 1.27)
				)
				(hide yes)
			)
		)
		(property "Datasheet" ""
			(at 127 179.07 0)
			(effects
				(font
					(size 1.27 1.27)
				)
				(hide yes)
			)
		)
		(property "Description" ""
			(at 127 179.07 0)
			(effects
				(font
					(size 1.27 1.27)
				)
				(hide yes)
			)
		)
		(pin "1"
			(uuid "98b65bdc-e4a7-415e-8af4-f923b35db883")
		)
		(instances
			(project "cp0104"
				(path "/c5e21742-b4da-46ed-8f1f-40e1fee34745"
					(reference "#PWR03")
					(unit 1)
				)
			)
		)
	)
	(symbol
		(lib_id "Device:C")
		(at 35.56 54.61 0)
		(unit 1)
		(exclude_from_sim no)
		(in_bom yes)
		(on_board yes)
		(dnp no)
		(uuid "00000000-0000-0000-0000-0000616f3de7")
		(property "Reference" "C2"
			(at 38.481 53.4416 0)
			(effects
				(font
					(size 1.27 1.27)
				)
				(justify left)
			)
		)
		(property "Value" "470n"
			(at 38.481 55.753 0)
			(effects
				(font
					(size 1.27 1.27)
				)
				(justify left)
			)
		)
		(property "Footprint" "Capacitor_SMD:C_0603_1608Metric"
			(at 36.5252 58.42 0)
			(effects
				(font
					(size 1.27 1.27)
				)
				(hide yes)
			)
		)
		(property "Datasheet" "~"
			(at 35.56 54.61 0)
			(effects
				(font
					(size 1.27 1.27)
				)
				(hide yes)
			)
		)
		(property "Description" ""
			(at 35.56 54.61 0)
			(effects
				(font
					(size 1.27 1.27)
				)
				(hide yes)
			)
		)
		(pin "1"
			(uuid "b914b9c4-ff83-4ef5-8ce5-4e60dbf9bcaf")
		)
		(pin "2"
			(uuid "592938e3-945d-4514-a5a6-79292f5b4408")
		)
		(instances
			(project "cp0104"
				(path "/c5e21742-b4da-46ed-8f1f-40e1fee34745"
					(reference "C2")
					(unit 1)
				)
			)
		)
	)
	(symbol
		(lib_id "Device:R_US")
		(at 66.04 60.96 0)
		(unit 1)
		(exclude_from_sim no)
		(in_bom yes)
		(on_board yes)
		(dnp no)
		(uuid "00000000-0000-0000-0000-0000616f59b4")
		(property "Reference" "R2"
			(at 67.7672 59.7916 0)
			(effects
				(font
					(size 1.27 1.27)
				)
				(justify left)
			)
		)
		(property "Value" "150k"
			(at 67.7672 62.103 0)
			(effects
				(font
					(size 1.27 1.27)
				)
				(justify left)
			)
		)
		(property "Footprint" "Resistor_THT:R_Axial_DIN0411_L9.9mm_D3.6mm_P20.32mm_Horizontal"
			(at 67.056 61.214 90)
			(effects
				(font
					(size 1.27 1.27)
				)
				(hide yes)
			)
		)
		(property "Datasheet" "~"
			(at 66.04 60.96 0)
			(effects
				(font
					(size 1.27 1.27)
				)
				(hide yes)
			)
		)
		(property "Description" ""
			(at 66.04 60.96 0)
			(effects
				(font
					(size 1.27 1.27)
				)
				(hide yes)
			)
		)
		(pin "1"
			(uuid "61e7e9d6-4741-438d-9629-1fcc11d5d68a")
		)
		(pin "2"
			(uuid "009e7dba-77ad-4844-992a-9ffef80998a3")
		)
		(instances
			(project "cp0104"
				(path "/c5e21742-b4da-46ed-8f1f-40e1fee34745"
					(reference "R2")
					(unit 1)
				)
			)
		)
	)
	(symbol
		(lib_id "Device:R_Potentiometer_US")
		(at 66.04 73.66 0)
		(unit 1)
		(exclude_from_sim no)
		(in_bom yes)
		(on_board yes)
		(dnp no)
		(uuid "00000000-0000-0000-0000-0000616f88f6")
		(property "Reference" "RV1"
			(at 64.3382 72.4916 0)
			(effects
				(font
					(size 1.27 1.27)
				)
				(justify right)
			)
		)
		(property "Value" "10K"
			(at 64.3382 74.803 0)
			(effects
				(font
					(size 1.27 1.27)
				)
				(justify right)
			)
		)
		(property "Footprint" "Connector_Phoenix_GMSTB:PhoenixContact_GMSTBA_2,5_3-G-7,62_1x03_P7.62mm_Horizontal"
			(at 66.04 73.66 0)
			(effects
				(font
					(size 1.27 1.27)
				)
				(hide yes)
			)
		)
		(property "Datasheet" "~"
			(at 66.04 73.66 0)
			(effects
				(font
					(size 1.27 1.27)
				)
				(hide yes)
			)
		)
		(property "Description" ""
			(at 66.04 73.66 0)
			(effects
				(font
					(size 1.27 1.27)
				)
				(hide yes)
			)
		)
		(pin "3"
			(uuid "deca39a7-2a44-4a4c-8c05-fa39ac71e638")
		)
		(pin "2"
			(uuid "434341ee-87ec-4364-94aa-4a1b6c6fbaf5")
		)
		(pin "1"
			(uuid "3c6a38f4-fc6f-4658-aa33-397999c75e9a")
		)
		(instances
			(project "cp0104"
				(path "/c5e21742-b4da-46ed-8f1f-40e1fee34745"
					(reference "RV1")
					(unit 1)
				)
			)
		)
	)
	(symbol
		(lib_id "Connector:TestPoint")
		(at 82.55 71.12 0)
		(unit 1)
		(exclude_from_sim no)
		(in_bom yes)
		(on_board yes)
		(dnp no)
		(uuid "00000000-0000-0000-0000-0000616f9a95")
		(property "Reference" "TP1"
			(at 84.0232 68.1228 0)
			(effects
				(font
					(size 1.27 1.27)
				)
				(justify left)
			)
		)
		(property "Value" "TestPoint"
			(at 84.0232 70.4342 0)
			(effects
				(font
					(size 1.27 1.27)
				)
				(justify left)
			)
		)
		(property "Footprint" "Connector_PinHeader_2.54mm:PinHeader_1x01_P2.54mm_Vertical"
			(at 87.63 71.12 0)
			(effects
				(font
					(size 1.27 1.27)
				)
				(hide yes)
			)
		)
		(property "Datasheet" "~"
			(at 87.63 71.12 0)
			(effects
				(font
					(size 1.27 1.27)
				)
				(hide yes)
			)
		)
		(property "Description" ""
			(at 82.55 71.12 0)
			(effects
				(font
					(size 1.27 1.27)
				)
				(hide yes)
			)
		)
		(pin "1"
			(uuid "629f3aa9-ea91-41a7-9176-2b3b0b0ffc40")
		)
		(instances
			(project "cp0104"
				(path "/c5e21742-b4da-46ed-8f1f-40e1fee34745"
					(reference "TP1")
					(unit 1)
				)
			)
		)
	)
	(symbol
		(lib_id "cp0104-rescue:GND-power")
		(at 50.8 69.85 0)
		(unit 1)
		(exclude_from_sim no)
		(in_bom yes)
		(on_board yes)
		(dnp no)
		(uuid "00000000-0000-0000-0000-000061702326")
		(property "Reference" "#PWR07"
			(at 50.8 76.2 0)
			(effects
				(font
					(size 1.27 1.27)
				)
				(hide yes)
			)
		)
		(property "Value" "GND"
			(at 50.927 74.2442 0)
			(effects
				(font
					(size 1.27 1.27)
				)
			)
		)
		(property "Footprint" ""
			(at 50.8 69.85 0)
			(effects
				(font
					(size 1.27 1.27)
				)
				(hide yes)
			)
		)
		(property "Datasheet" ""
			(at 50.8 69.85 0)
			(effects
				(font
					(size 1.27 1.27)
				)
				(hide yes)
			)
		)
		(property "Description" ""
			(at 50.8 69.85 0)
			(effects
				(font
					(size 1.27 1.27)
				)
				(hide yes)
			)
		)
		(pin "1"
			(uuid "ed3533e1-c9e2-4a6e-997e-40a630b517c6")
		)
		(instances
			(project "cp0104"
				(path "/c5e21742-b4da-46ed-8f1f-40e1fee34745"
					(reference "#PWR07")
					(unit 1)
				)
			)
		)
	)
	(symbol
		(lib_id "cp0104-rescue:GND-power")
		(at 66.04 90.17 0)
		(unit 1)
		(exclude_from_sim no)
		(in_bom yes)
		(on_board yes)
		(dnp no)
		(uuid "00000000-0000-0000-0000-00006170260e")
		(property "Reference" "#PWR08"
			(at 66.04 96.52 0)
			(effects
				(font
					(size 1.27 1.27)
				)
				(hide yes)
			)
		)
		(property "Value" "GND"
			(at 66.167 94.5642 0)
			(effects
				(font
					(size 1.27 1.27)
				)
			)
		)
		(property "Footprint" ""
			(at 66.04 90.17 0)
			(effects
				(font
					(size 1.27 1.27)
				)
				(hide yes)
			)
		)
		(property "Datasheet" ""
			(at 66.04 90.17 0)
			(effects
				(font
					(size 1.27 1.27)
				)
				(hide yes)
			)
		)
		(property "Description" ""
			(at 66.04 90.17 0)
			(effects
				(font
					(size 1.27 1.27)
				)
				(hide yes)
			)
		)
		(pin "1"
			(uuid "0f7ceda9-b198-4006-837d-2537fecfaf08")
		)
		(instances
			(project "cp0104"
				(path "/c5e21742-b4da-46ed-8f1f-40e1fee34745"
					(reference "#PWR08")
					(unit 1)
				)
			)
		)
	)
	(symbol
		(lib_id "cp0104-rescue:GND-power")
		(at 35.56 69.85 0)
		(unit 1)
		(exclude_from_sim no)
		(in_bom yes)
		(on_board yes)
		(dnp no)
		(uuid "00000000-0000-0000-0000-000061702785")
		(property "Reference" "#PWR06"
			(at 35.56 76.2 0)
			(effects
				(font
					(size 1.27 1.27)
				)
				(hide yes)
			)
		)
		(property "Value" "GND"
			(at 35.687 74.2442 0)
			(effects
				(font
					(size 1.27 1.27)
				)
			)
		)
		(property "Footprint" ""
			(at 35.56 69.85 0)
			(effects
				(font
					(size 1.27 1.27)
				)
				(hide yes)
			)
		)
		(property "Datasheet" ""
			(at 35.56 69.85 0)
			(effects
				(font
					(size 1.27 1.27)
				)
				(hide yes)
			)
		)
		(property "Description" ""
			(at 35.56 69.85 0)
			(effects
				(font
					(size 1.27 1.27)
				)
				(hide yes)
			)
		)
		(pin "1"
			(uuid "e1c98b7c-e458-4b55-a0ef-115f2f4cfec3")
		)
		(instances
			(project "cp0104"
				(path "/c5e21742-b4da-46ed-8f1f-40e1fee34745"
					(reference "#PWR06")
					(unit 1)
				)
			)
		)
	)
	(symbol
		(lib_id "cp0104-rescue:GND-power")
		(at 25.4 50.8 0)
		(unit 1)
		(exclude_from_sim no)
		(in_bom yes)
		(on_board yes)
		(dnp no)
		(uuid "00000000-0000-0000-0000-0000617029f3")
		(property "Reference" "#PWR05"
			(at 25.4 57.15 0)
			(effects
				(font
					(size 1.27 1.27)
				)
				(hide yes)
			)
		)
		(property "Value" "GND"
			(at 25.527 55.1942 0)
			(effects
				(font
					(size 1.27 1.27)
				)
			)
		)
		(property "Footprint" ""
			(at 25.4 50.8 0)
			(effects
				(font
					(size 1.27 1.27)
				)
				(hide yes)
			)
		)
		(property "Datasheet" ""
			(at 25.4 50.8 0)
			(effects
				(font
					(size 1.27 1.27)
				)
				(hide yes)
			)
		)
		(property "Description" ""
			(at 25.4 50.8 0)
			(effects
				(font
					(size 1.27 1.27)
				)
				(hide yes)
			)
		)
		(pin "1"
			(uuid "acd37f34-1389-4e3b-a6b8-2875b01a283e")
		)
		(instances
			(project "cp0104"
				(path "/c5e21742-b4da-46ed-8f1f-40e1fee34745"
					(reference "#PWR05")
					(unit 1)
				)
			)
		)
	)
	(symbol
		(lib_id "Device:C")
		(at 95.25 82.55 0)
		(unit 1)
		(exclude_from_sim no)
		(in_bom yes)
		(on_board yes)
		(dnp no)
		(uuid "00000000-0000-0000-0000-000061711906")
		(property "Reference" "C3"
			(at 98.171 81.3816 0)
			(effects
				(font
					(size 1.27 1.27)
				)
				(justify left)
			)
		)
		(property "Value" "470n"
			(at 98.171 83.693 0)
			(effects
				(font
					(size 1.27 1.27)
				)
				(justify left)
			)
		)
		(property "Footprint" "Capacitor_SMD:C_0603_1608Metric"
			(at 96.2152 86.36 0)
			(effects
				(font
					(size 1.27 1.27)
				)
				(hide yes)
			)
		)
		(property "Datasheet" "~"
			(at 95.25 82.55 0)
			(effects
				(font
					(size 1.27 1.27)
				)
				(hide yes)
			)
		)
		(property "Description" ""
			(at 95.25 82.55 0)
			(effects
				(font
					(size 1.27 1.27)
				)
				(hide yes)
			)
		)
		(pin "1"
			(uuid "c237c3fe-89fb-44b7-8640-e633766ba013")
		)
		(pin "2"
			(uuid "7fe85560-c063-49b1-9543-6c6b81ad5e47")
		)
		(instances
			(project "cp0104"
				(path "/c5e21742-b4da-46ed-8f1f-40e1fee34745"
					(reference "C3")
					(unit 1)
				)
			)
		)
	)
	(symbol
		(lib_id "cp0104-rescue:GND-power")
		(at 95.25 90.17 0)
		(unit 1)
		(exclude_from_sim no)
		(in_bom yes)
		(on_board yes)
		(dnp no)
		(uuid "00000000-0000-0000-0000-000061721311")
		(property "Reference" "#PWR09"
			(at 95.25 96.52 0)
			(effects
				(font
					(size 1.27 1.27)
				)
				(hide yes)
			)
		)
		(property "Value" "GND"
			(at 95.377 94.5642 0)
			(effects
				(font
					(size 1.27 1.27)
				)
			)
		)
		(property "Footprint" ""
			(at 95.25 90.17 0)
			(effects
				(font
					(size 1.27 1.27)
				)
				(hide yes)
			)
		)
		(property "Datasheet" ""
			(at 95.25 90.17 0)
			(effects
				(font
					(size 1.27 1.27)
				)
				(hide yes)
			)
		)
		(property "Description" ""
			(at 95.25 90.17 0)
			(effects
				(font
					(size 1.27 1.27)
				)
				(hide yes)
			)
		)
		(pin "1"
			(uuid "ca038f13-a3eb-45c5-90ae-f1afca6a7622")
		)
		(instances
			(project "cp0104"
				(path "/c5e21742-b4da-46ed-8f1f-40e1fee34745"
					(reference "#PWR09")
					(unit 1)
				)
			)
		)
	)
	(symbol
		(lib_id "Device:R_US")
		(at 137.16 76.2 270)
		(unit 1)
		(exclude_from_sim no)
		(in_bom yes)
		(on_board yes)
		(dnp no)
		(uuid "00000000-0000-0000-0000-00006172720a")
		(property "Reference" "R3"
			(at 137.16 70.993 90)
			(effects
				(font
					(size 1.27 1.27)
				)
			)
		)
		(property "Value" "330"
			(at 137.16 73.3044 90)
			(effects
				(font
					(size 1.27 1.27)
				)
			)
		)
		(property "Footprint" "Resistor_SMD:R_0805_2012Metric"
			(at 136.906 77.216 90)
			(effects
				(font
					(size 1.27 1.27)
				)
				(hide yes)
			)
		)
		(property "Datasheet" "~"
			(at 137.16 76.2 0)
			(effects
				(font
					(size 1.27 1.27)
				)
				(hide yes)
			)
		)
		(property "Description" ""
			(at 137.16 76.2 0)
			(effects
				(font
					(size 1.27 1.27)
				)
				(hide yes)
			)
		)
		(pin "1"
			(uuid "357e8cc4-2a60-4486-93a8-86b6b4892157")
		)
		(pin "2"
			(uuid "a79407b9-860a-4671-b868-ced19799cde7")
		)
		(instances
			(project "cp0104"
				(path "/c5e21742-b4da-46ed-8f1f-40e1fee34745"
					(reference "R3")
					(unit 1)
				)
			)
		)
	)
	(symbol
		(lib_id "cp0104-rescue:MOSFET-NCH-2N7002PW-SparkFun-DiscreteSemi")
		(at 156.21 73.66 0)
		(unit 1)
		(exclude_from_sim no)
		(in_bom yes)
		(on_board yes)
		(dnp no)
		(uuid "00000000-0000-0000-0000-000061728865")
		(property "Reference" "Q1"
			(at 160.401 71.247 0)
			(effects
				(font
					(size 1.143 1.143)
				)
				(justify left)
			)
		)
		(property "Value" "IRFP4410"
			(at 160.401 73.3806 0)
			(effects
				(font
					(size 1.143 1.143)
				)
				(justify left)
			)
		)
		(property "Footprint" "Package_TO_SOT_THT:TO-220-3_Vertical"
			(at 156.21 66.04 0)
			(effects
				(font
					(size 0.508 0.508)
				)
				(hide yes)
			)
		)
		(property "Datasheet" ""
			(at 156.21 73.66 0)
			(effects
				(font
					(size 1.27 1.27)
				)
				(hide yes)
			)
		)
		(property "Description" ""
			(at 156.21 73.66 0)
			(effects
				(font
					(size 1.27 1.27)
				)
				(hide yes)
			)
		)
		(property "Field4" "TRANS-11151"
			(at 160.401 75.7936 0)
			(effects
				(font
					(size 1.524 1.524)
				)
				(justify left)
			)
		)
		(pin "3"
			(uuid "8507afc5-7a46-4521-b485-869ddb581246")
		)
		(pin "2"
			(uuid "4d036a08-8040-4b3e-bd74-40fa46abc82f")
		)
		(pin "1"
			(uuid "a885fba4-c7ac-4638-83ff-15777bde5b98")
		)
		(instances
			(project "cp0104"
				(path "/c5e21742-b4da-46ed-8f1f-40e1fee34745"
					(reference "Q1")
					(unit 1)
				)
			)
		)
	)
	(symbol
		(lib_id "Device:R_US")
		(at 173.99 44.45 180)
		(unit 1)
		(exclude_from_sim no)
		(in_bom yes)
		(on_board yes)
		(dnp no)
		(uuid "00000000-0000-0000-0000-00006172ec43")
		(property "Reference" "R4"
			(at 175.7172 43.2816 0)
			(effects
				(font
					(size 1.27 1.27)
				)
				(justify right)
			)
		)
		(property "Value" "2r2"
			(at 175.7172 45.593 0)
			(effects
				(font
					(size 1.27 1.27)
				)
				(justify right)
			)
		)
		(property "Footprint" "Resistor_SMD:R_0805_2012Metric"
			(at 172.974 44.196 90)
			(effects
				(font
					(size 1.27 1.27)
				)
				(hide yes)
			)
		)
		(property "Datasheet" "~"
			(at 173.99 44.45 0)
			(effects
				(font
					(size 1.27 1.27)
				)
				(hide yes)
			)
		)
		(property "Description" ""
			(at 173.99 44.45 0)
			(effects
				(font
					(size 1.27 1.27)
				)
				(hide yes)
			)
		)
		(pin "1"
			(uuid "7ed7ecdf-877e-4822-8613-8bc03354f740")
		)
		(pin "2"
			(uuid "9b05409a-b667-4aee-a1f2-6e0aae2409da")
		)
		(instances
			(project "cp0104"
				(path "/c5e21742-b4da-46ed-8f1f-40e1fee34745"
					(reference "R4")
					(unit 1)
				)
			)
		)
	)
	(symbol
		(lib_id "Device:C")
		(at 173.99 54.61 0)
		(unit 1)
		(exclude_from_sim no)
		(in_bom yes)
		(on_board yes)
		(dnp no)
		(uuid "00000000-0000-0000-0000-0000617330b0")
		(property "Reference" "C4"
			(at 176.911 53.4416 0)
			(effects
				(font
					(size 1.27 1.27)
				)
				(justify left)
			)
		)
		(property "Value" "2.2u"
			(at 176.911 55.753 0)
			(effects
				(font
					(size 1.27 1.27)
				)
				(justify left)
			)
		)
		(property "Footprint" "Capacitor_THT:C_Radial_D6.3mm_H11.0mm_P2.50mm"
			(at 174.9552 58.42 0)
			(effects
				(font
					(size 1.27 1.27)
				)
				(hide yes)
			)
		)
		(property "Datasheet" "~"
			(at 173.99 54.61 0)
			(effects
				(font
					(size 1.27 1.27)
				)
				(hide yes)
			)
		)
		(property "Description" ""
			(at 173.99 54.61 0)
			(effects
				(font
					(size 1.27 1.27)
				)
				(hide yes)
			)
		)
		(pin "2"
			(uuid "5ce685d4-b918-4cae-a093-80e1c239574f")
		)
		(pin "1"
			(uuid "347f5760-573b-41fb-81a6-df7033728eec")
		)
		(instances
			(project "cp0104"
				(path "/c5e21742-b4da-46ed-8f1f-40e1fee34745"
					(reference "C4")
					(unit 1)
				)
			)
		)
	)
	(symbol
		(lib_id "cp0104-rescue:GND-power")
		(at 173.99 60.96 0)
		(unit 1)
		(exclude_from_sim no)
		(in_bom yes)
		(on_board yes)
		(dnp no)
		(uuid "00000000-0000-0000-0000-000061733c6c")
		(property "Reference" "#PWR010"
			(at 173.99 67.31 0)
			(effects
				(font
					(size 1.27 1.27)
				)
				(hide yes)
			)
		)
		(property "Value" "GND"
			(at 174.117 65.3542 0)
			(effects
				(font
					(size 1.27 1.27)
				)
			)
		)
		(property "Footprint" ""
			(at 173.99 60.96 0)
			(effects
				(font
					(size 1.27 1.27)
				)
				(hide yes)
			)
		)
		(property "Datasheet" ""
			(at 173.99 60.96 0)
			(effects
				(font
					(size 1.27 1.27)
				)
				(hide yes)
			)
		)
		(property "Description" ""
			(at 173.99 60.96 0)
			(effects
				(font
					(size 1.27 1.27)
				)
				(hide yes)
			)
		)
		(pin "1"
			(uuid "96d7881f-5cdc-48e1-9a3c-8f6b6868d25b")
		)
		(instances
			(project "cp0104"
				(path "/c5e21742-b4da-46ed-8f1f-40e1fee34745"
					(reference "#PWR010")
					(unit 1)
				)
			)
		)
	)
	(symbol
		(lib_id "Device:D_Zener")
		(at 241.3 44.45 270)
		(unit 1)
		(exclude_from_sim no)
		(in_bom yes)
		(on_board yes)
		(dnp no)
		(uuid "00000000-0000-0000-0000-00006173cc36")
		(property "Reference" "D2"
			(at 243.332 43.2816 90)
			(effects
				(font
					(size 1.27 1.27)
				)
				(justify left)
			)
		)
		(property "Value" "TVSmaxV"
			(at 243.332 45.593 90)
			(effects
				(font
					(size 1.27 1.27)
				)
				(justify left)
			)
		)
		(property "Footprint" "Diode_THT:D_5W_P12.70mm_Horizontal"
			(at 241.3 44.45 0)
			(effects
				(font
					(size 1.27 1.27)
				)
				(hide yes)
			)
		)
		(property "Datasheet" "~"
			(at 241.3 44.45 0)
			(effects
				(font
					(size 1.27 1.27)
				)
				(hide yes)
			)
		)
		(property "Description" ""
			(at 241.3 44.45 0)
			(effects
				(font
					(size 1.27 1.27)
				)
				(hide yes)
			)
		)
		(pin "1"
			(uuid "4880bf84-53d5-4916-a5af-4097297d9768")
		)
		(pin "2"
			(uuid "1ac19006-0d37-4f90-8873-98e682507469")
		)
		(instances
			(project "cp0104"
				(path "/c5e21742-b4da-46ed-8f1f-40e1fee34745"
					(reference "D2")
					(unit 1)
				)
			)
		)
	)
	(symbol
		(lib_id "Device:Fuse")
		(at 250.19 38.1 270)
		(unit 1)
		(exclude_from_sim no)
		(in_bom yes)
		(on_board yes)
		(dnp no)
		(uuid "00000000-0000-0000-0000-00006173ea57")
		(property "Reference" "F1"
			(at 250.19 33.0962 90)
			(effects
				(font
					(size 1.27 1.27)
				)
			)
		)
		(property "Value" "Fuse"
			(at 250.19 35.4076 90)
			(effects
				(font
					(size 1.27 1.27)
				)
			)
		)
		(property "Footprint" "Fuse:Fuseholder_Cylinder-6.3x32mm_Schurter_0031-8002_Horizontal_Open"
			(at 250.19 36.322 90)
			(effects
				(font
					(size 1.27 1.27)
				)
				(hide yes)
			)
		)
		(property "Datasheet" "~"
			(at 250.19 38.1 0)
			(effects
				(font
					(size 1.27 1.27)
				)
				(hide yes)
			)
		)
		(property "Description" ""
			(at 250.19 38.1 0)
			(effects
				(font
					(size 1.27 1.27)
				)
				(hide yes)
			)
		)
		(pin "2"
			(uuid "4af83948-b7f1-421a-bc7c-e7f3f74e263e")
		)
		(pin "1"
			(uuid "7534f123-667b-472d-9cc5-dde2c7e122f1")
		)
		(instances
			(project "cp0104"
				(path "/c5e21742-b4da-46ed-8f1f-40e1fee34745"
					(reference "F1")
					(unit 1)
				)
			)
		)
	)
	(symbol
		(lib_id "cp0104-rescue:GND-power")
		(at 256.54 96.52 0)
		(unit 1)
		(exclude_from_sim no)
		(in_bom yes)
		(on_board yes)
		(dnp no)
		(uuid "00000000-0000-0000-0000-000061742e01")
		(property "Reference" "#PWR012"
			(at 256.54 102.87 0)
			(effects
				(font
					(size 1.27 1.27)
				)
				(hide yes)
			)
		)
		(property "Value" "GND"
			(at 256.667 100.9142 0)
			(effects
				(font
					(size 1.27 1.27)
				)
			)
		)
		(property "Footprint" ""
			(at 256.54 96.52 0)
			(effects
				(font
					(size 1.27 1.27)
				)
				(hide yes)
			)
		)
		(property "Datasheet" ""
			(at 256.54 96.52 0)
			(effects
				(font
					(size 1.27 1.27)
				)
				(hide yes)
			)
		)
		(property "Description" ""
			(at 256.54 96.52 0)
			(effects
				(font
					(size 1.27 1.27)
				)
				(hide yes)
			)
		)
		(pin "1"
			(uuid "d3ffc1eb-c04a-4e87-8709-b3d6c6a0f491")
		)
		(instances
			(project "cp0104"
				(path "/c5e21742-b4da-46ed-8f1f-40e1fee34745"
					(reference "#PWR012")
					(unit 1)
				)
			)
		)
	)
	(symbol
		(lib_id "cp0104-rescue:GND-power")
		(at 241.3 50.8 0)
		(unit 1)
		(exclude_from_sim no)
		(in_bom yes)
		(on_board yes)
		(dnp no)
		(uuid "00000000-0000-0000-0000-000061749f35")
		(property "Reference" "#PWR011"
			(at 241.3 57.15 0)
			(effects
				(font
					(size 1.27 1.27)
				)
				(hide yes)
			)
		)
		(property "Value" "GND"
			(at 241.427 55.1942 0)
			(effects
				(font
					(size 1.27 1.27)
				)
			)
		)
		(property "Footprint" ""
			(at 241.3 50.8 0)
			(effects
				(font
					(size 1.27 1.27)
				)
				(hide yes)
			)
		)
		(property "Datasheet" ""
			(at 241.3 50.8 0)
			(effects
				(font
					(size 1.27 1.27)
				)
				(hide yes)
			)
		)
		(property "Description" ""
			(at 241.3 50.8 0)
			(effects
				(font
					(size 1.27 1.27)
				)
				(hide yes)
			)
		)
		(pin "1"
			(uuid "a32ef8ad-4c8e-499b-bd3a-915dd6cf1cd0")
		)
		(instances
			(project "cp0104"
				(path "/c5e21742-b4da-46ed-8f1f-40e1fee34745"
					(reference "#PWR011")
					(unit 1)
				)
			)
		)
	)
	(symbol
		(lib_id "cp0104-rescue:Conn_01x02_Male-Connector")
		(at 264.16 71.12 180)
		(unit 1)
		(exclude_from_sim no)
		(in_bom yes)
		(on_board yes)
		(dnp no)
		(uuid "00000000-0000-0000-0000-00006174e258")
		(property "Reference" "J2"
			(at 264.8712 68.1228 0)
			(effects
				(font
					(size 1.27 1.27)
				)
				(justify right)
			)
		)
		(property "Value" "LOAD"
			(at 264.8712 70.4342 0)
			(effects
				(font
					(size 1.27 1.27)
				)
				(justify right)
			)
		)
		(property "Footprint" "Connector_Phoenix_MC_HighVoltage:PhoenixContact_MCV_1,5_2-GF-5.08_1x02_P5.08mm_Vertical_ThreadedFlange"
			(at 264.16 71.12 0)
			(effects
				(font
					(size 1.27 1.27)
				)
				(hide yes)
			)
		)
		(property "Datasheet" "~"
			(at 264.16 71.12 0)
			(effects
				(font
					(size 1.27 1.27)
				)
				(hide yes)
			)
		)
		(property "Description" ""
			(at 264.16 71.12 0)
			(effects
				(font
					(size 1.27 1.27)
				)
				(hide yes)
			)
		)
		(pin "1"
			(uuid "2d8e00e2-274e-41bf-a5d1-35b21866ffc3")
		)
		(pin "2"
			(uuid "16949d9b-2b17-44db-9242-8fd36227d323")
		)
		(instances
			(project "cp0104"
				(path "/c5e21742-b4da-46ed-8f1f-40e1fee34745"
					(reference "J2")
					(unit 1)
				)
			)
		)
	)
	(symbol
		(lib_id "cp0104-rescue:VA-metter5W-Device")
		(at 204.47 69.85 0)
		(unit 1)
		(exclude_from_sim no)
		(in_bom yes)
		(on_board yes)
		(dnp no)
		(uuid "00000000-0000-0000-0000-000061768f4c")
		(property "Reference" "U3"
			(at 208.915 65.659 0)
			(effects
				(font
					(size 1.27 1.27)
				)
			)
		)
		(property "Value" "VA-metter5W"
			(at 208.915 67.9704 0)
			(effects
				(font
					(size 1.27 1.27)
				)
			)
		)
		(property "Footprint" "Connector_Phoenix_MSTB:PhoenixContact_MSTBA_2,5_5-G_1x05_P5.00mm_Horizontal"
			(at 204.47 69.85 0)
			(effects
				(font
					(size 1.27 1.27)
				)
				(hide yes)
			)
		)
		(property "Datasheet" ""
			(at 204.47 69.85 0)
			(effects
				(font
					(size 1.27 1.27)
				)
				(hide yes)
			)
		)
		(property "Description" ""
			(at 204.47 69.85 0)
			(effects
				(font
					(size 1.27 1.27)
				)
				(hide yes)
			)
		)
		(pin "1"
			(uuid "7ae617f6-76b1-4e5a-ba5b-758c25e3446d")
		)
		(pin "3"
			(uuid "25412851-f815-4d13-8a05-43773b2fcfce")
		)
		(pin "2"
			(uuid "85ce48cd-8a48-415b-85dc-2876c79cecbc")
		)
		(pin "4"
			(uuid "d6e15827-87eb-4ce3-826f-4c807e0100d8")
		)
		(pin "5"
			(uuid "53ab39a2-11ac-4735-818b-a36220063020")
		)
		(instances
			(project "cp0104"
				(path "/c5e21742-b4da-46ed-8f1f-40e1fee34745"
					(reference "U3")
					(unit 1)
				)
			)
		)
	)
	(symbol
		(lib_id "cp0104-rescue:GND-power")
		(at 226.06 87.63 0)
		(unit 1)
		(exclude_from_sim no)
		(in_bom yes)
		(on_board yes)
		(dnp no)
		(uuid "00000000-0000-0000-0000-000061771213")
		(property "Reference" "#PWR015"
			(at 226.06 93.98 0)
			(effects
				(font
					(size 1.27 1.27)
				)
				(hide yes)
			)
		)
		(property "Value" "GND"
			(at 226.187 92.0242 0)
			(effects
				(font
					(size 1.27 1.27)
				)
			)
		)
		(property "Footprint" ""
			(at 226.06 87.63 0)
			(effects
				(font
					(size 1.27 1.27)
				)
				(hide yes)
			)
		)
		(property "Datasheet" ""
			(at 226.06 87.63 0)
			(effects
				(font
					(size 1.27 1.27)
				)
				(hide yes)
			)
		)
		(property "Description" ""
			(at 226.06 87.63 0)
			(effects
				(font
					(size 1.27 1.27)
				)
				(hide yes)
			)
		)
		(pin "1"
			(uuid "493cb79f-0b1f-4647-810f-b100175295e2")
		)
		(instances
			(project "cp0104"
				(path "/c5e21742-b4da-46ed-8f1f-40e1fee34745"
					(reference "#PWR015")
					(unit 1)
				)
			)
		)
	)
	(symbol
		(lib_id "cp0104-rescue:GND-power")
		(at 191.77 87.63 0)
		(unit 1)
		(exclude_from_sim no)
		(in_bom yes)
		(on_board yes)
		(dnp no)
		(uuid "00000000-0000-0000-0000-000061772d42")
		(property "Reference" "#PWR013"
			(at 191.77 93.98 0)
			(effects
				(font
					(size 1.27 1.27)
				)
				(hide yes)
			)
		)
		(property "Value" "GND"
			(at 191.897 92.0242 0)
			(effects
				(font
					(size 1.27 1.27)
				)
			)
		)
		(property "Footprint" ""
			(at 191.77 87.63 0)
			(effects
				(font
					(size 1.27 1.27)
				)
				(hide yes)
			)
		)
		(property "Datasheet" ""
			(at 191.77 87.63 0)
			(effects
				(font
					(size 1.27 1.27)
				)
				(hide yes)
			)
		)
		(property "Description" ""
			(at 191.77 87.63 0)
			(effects
				(font
					(size 1.27 1.27)
				)
				(hide yes)
			)
		)
		(pin "1"
			(uuid "74833f6f-b66a-4f9b-96a6-944b96ed5f5a")
		)
		(instances
			(project "cp0104"
				(path "/c5e21742-b4da-46ed-8f1f-40e1fee34745"
					(reference "#PWR013")
					(unit 1)
				)
			)
		)
	)
	(symbol
		(lib_id "cp0104-rescue:+12V-power")
		(at 226.06 53.34 0)
		(unit 1)
		(exclude_from_sim no)
		(in_bom yes)
		(on_board yes)
		(dnp no)
		(uuid "00000000-0000-0000-0000-000061778c4b")
		(property "Reference" "#PWR014"
			(at 226.06 57.15 0)
			(effects
				(font
					(size 1.27 1.27)
				)
				(hide yes)
			)
		)
		(property "Value" "+12V"
			(at 226.441 48.9458 0)
			(effects
				(font
					(size 1.27 1.27)
				)
			)
		)
		(property "Footprint" ""
			(at 226.06 53.34 0)
			(effects
				(font
					(size 1.27 1.27)
				)
				(hide yes)
			)
		)
		(property "Datasheet" ""
			(at 226.06 53.34 0)
			(effects
				(font
					(size 1.27 1.27)
				)
				(hide yes)
			)
		)
		(property "Description" ""
			(at 226.06 53.34 0)
			(effects
				(font
					(size 1.27 1.27)
				)
				(hide yes)
			)
		)
		(pin "1"
			(uuid "43bbdad5-4c4b-42d0-834f-cee603cfddee")
		)
		(instances
			(project "cp0104"
				(path "/c5e21742-b4da-46ed-8f1f-40e1fee34745"
					(reference "#PWR014")
					(unit 1)
				)
			)
		)
	)
	(symbol
		(lib_id "cp0104-rescue:GND-power")
		(at 234.95 73.66 0)
		(unit 1)
		(exclude_from_sim no)
		(in_bom yes)
		(on_board yes)
		(dnp no)
		(uuid "00000000-0000-0000-0000-000061780f8e")
		(property "Reference" "#PWR016"
			(at 234.95 80.01 0)
			(effects
				(font
					(size 1.27 1.27)
				)
				(hide yes)
			)
		)
		(property "Value" "GND"
			(at 235.077 78.0542 0)
			(effects
				(font
					(size 1.27 1.27)
				)
			)
		)
		(property "Footprint" ""
			(at 234.95 73.66 0)
			(effects
				(font
					(size 1.27 1.27)
				)
				(hide yes)
			)
		)
		(property "Datasheet" ""
			(at 234.95 73.66 0)
			(effects
				(font
					(size 1.27 1.27)
				)
				(hide yes)
			)
		)
		(property "Description" ""
			(at 234.95 73.66 0)
			(effects
				(font
					(size 1.27 1.27)
				)
				(hide yes)
			)
		)
		(pin "1"
			(uuid "d710d085-cedb-44cf-8a83-dab1b19a070d")
		)
		(instances
			(project "cp0104"
				(path "/c5e21742-b4da-46ed-8f1f-40e1fee34745"
					(reference "#PWR016")
					(unit 1)
				)
			)
		)
	)
	(symbol
		(lib_id "Device:C_Polarized_US")
		(at 234.95 67.31 0)
		(unit 1)
		(exclude_from_sim no)
		(in_bom yes)
		(on_board yes)
		(dnp no)
		(uuid "00000000-0000-0000-0000-000061786d5e")
		(property "Reference" "C5"
			(at 237.871 66.1416 0)
			(effects
				(font
					(size 1.27 1.27)
				)
				(justify left)
			)
		)
		(property "Value" "10u"
			(at 237.871 68.453 0)
			(effects
				(font
					(size 1.27 1.27)
				)
				(justify left)
			)
		)
		(property "Footprint" "Capacitor_THT:C_Radial_D8.0mm_H11.5mm_P3.50mm"
			(at 234.95 67.31 0)
			(effects
				(font
					(size 1.27 1.27)
				)
				(hide yes)
			)
		)
		(property "Datasheet" "~"
			(at 234.95 67.31 0)
			(effects
				(font
					(size 1.27 1.27)
				)
				(hide yes)
			)
		)
		(property "Description" ""
			(at 234.95 67.31 0)
			(effects
				(font
					(size 1.27 1.27)
				)
				(hide yes)
			)
		)
		(pin "1"
			(uuid "ebabae1e-cec7-4f71-b611-3c0ae3e22956")
		)
		(pin "2"
			(uuid "73de8e70-e5e4-48ef-ab7b-21822ea5265c")
		)
		(instances
			(project "cp0104"
				(path "/c5e21742-b4da-46ed-8f1f-40e1fee34745"
					(reference "C5")
					(unit 1)
				)
			)
		)
	)
	(symbol
		(lib_id "cp0104-rescue:PWR_FLAG-power")
		(at 63.5 153.67 90)
		(unit 1)
		(exclude_from_sim no)
		(in_bom yes)
		(on_board yes)
		(dnp no)
		(uuid "00000000-0000-0000-0000-00006178e726")
		(property "Reference" "#FLG0101"
			(at 61.595 153.67 0)
			(effects
				(font
					(size 1.27 1.27)
				)
				(hide yes)
			)
		)
		(property "Value" "PWR_FLAG"
			(at 60.2742 153.67 90)
			(effects
				(font
					(size 1.27 1.27)
				)
				(justify left)
			)
		)
		(property "Footprint" ""
			(at 63.5 153.67 0)
			(effects
				(font
					(size 1.27 1.27)
				)
				(hide yes)
			)
		)
		(property "Datasheet" "~"
			(at 63.5 153.67 0)
			(effects
				(font
					(size 1.27 1.27)
				)
				(hide yes)
			)
		)
		(property "Description" ""
			(at 63.5 153.67 0)
			(effects
				(font
					(size 1.27 1.27)
				)
				(hide yes)
			)
		)
		(pin "1"
			(uuid "0f20f092-5682-4168-9b2b-1f29746f01b7")
		)
		(instances
			(project "cp0104"
				(path "/c5e21742-b4da-46ed-8f1f-40e1fee34745"
					(reference "#FLG0101")
					(unit 1)
				)
			)
		)
	)
	(symbol
		(lib_id "cp0104-rescue:PWR_FLAG-power")
		(at 63.5 173.99 90)
		(unit 1)
		(exclude_from_sim no)
		(in_bom yes)
		(on_board yes)
		(dnp no)
		(uuid "00000000-0000-0000-0000-00006178f5c6")
		(property "Reference" "#FLG0102"
			(at 61.595 173.99 0)
			(effects
				(font
					(size 1.27 1.27)
				)
				(hide yes)
			)
		)
		(property "Value" "PWR_FLAG"
			(at 60.2742 173.99 90)
			(effects
				(font
					(size 1.27 1.27)
				)
				(justify left)
			)
		)
		(property "Footprint" ""
			(at 63.5 173.99 0)
			(effects
				(font
					(size 1.27 1.27)
				)
				(hide yes)
			)
		)
		(property "Datasheet" "~"
			(at 63.5 173.99 0)
			(effects
				(font
					(size 1.27 1.27)
				)
				(hide yes)
			)
		)
		(property "Description" ""
			(at 63.5 173.99 0)
			(effects
				(font
					(size 1.27 1.27)
				)
				(hide yes)
			)
		)
		(pin "1"
			(uuid "d14bd940-5828-4d61-bc76-8962a5087b63")
		)
		(instances
			(project "cp0104"
				(path "/c5e21742-b4da-46ed-8f1f-40e1fee34745"
					(reference "#FLG0102")
					(unit 1)
				)
			)
		)
	)
	(sheet_instances
		(path "/"
			(page "1")
		)
	)
)