(kicad_symbol_lib
	(version 20231120)
	(generator "kicad_symbol_editor")
	(generator_version "8.0")
	(symbol "+12V-power"
		(power)
		(pin_names
			(offset 0)
		)
		(exclude_from_sim no)
		(in_bom yes)
		(on_board yes)
		(property "Reference" "#PWR"
			(at 0 -3.81 0)
			(effects
				(font
					(size 1.27 1.27)
				)
				(hide yes)
			)
		)
		(property "Value" "power_+12V"
			(at 0 3.556 0)
			(effects
				(font
					(size 1.27 1.27)
				)
			)
		)
		(property "Footprint" ""
			(at 0 0 0)
			(effects
				(font
					(size 1.27 1.27)
				)
				(hide yes)
			)
		)
		(property "Datasheet" ""
			(at 0 0 0)
			(effects
				(font
					(size 1.27 1.27)
				)
				(hide yes)
			)
		)
		(property "Description" ""
			(at 0 0 0)
			(effects
				(font
					(size 1.27 1.27)
				)
				(hide yes)
			)
		)
		(symbol "+12V-power_0_1"
			(polyline
				(pts
					(xy -0.762 1.27) (xy 0 2.54)
				)
				(stroke
					(width 0)
					(type solid)
				)
				(fill
					(type none)
				)
			)
			(polyline
				(pts
					(xy 0 0) (xy 0 2.54)
				)
				(stroke
					(width 0)
					(type solid)
				)
				(fill
					(type none)
				)
			)
			(polyline
				(pts
					(xy 0 2.54) (xy 0.762 1.27)
				)
				(stroke
					(width 0)
					(type solid)
				)
				(fill
					(type none)
				)
			)
		)
		(symbol "+12V-power_1_1"
			(pin power_in line
				(at 0 0 90)
				(length 0) hide
				(name "+12V"
					(effects
						(font
							(size 1.27 1.27)
						)
					)
				)
				(number "1"
					(effects
						(font
							(size 1.27 1.27)
						)
					)
				)
			)
		)
	)
	(symbol "Conn_01x02_Male-Connector"
		(pin_names
			(offset 1.016) hide)
		(exclude_from_sim no)
		(in_bom yes)
		(on_board yes)
		(property "Reference" "J"
			(at 0 2.54 0)
			(effects
				(font
					(size 1.27 1.27)
				)
			)
		)
		(property "Value" "Connector_Conn_01x02_Male"
			(at 0 -5.08 0)
			(effects
				(font
					(size 1.27 1.27)
				)
			)
		)
		(property "Footprint" ""
			(at 0 0 0)
			(effects
				(font
					(size 1.27 1.27)
				)
				(hide yes)
			)
		)
		(property "Datasheet" ""
			(at 0 0 0)
			(effects
				(font
					(size 1.27 1.27)
				)
				(hide yes)
			)
		)
		(property "Description" ""
			(at 0 0 0)
			(effects
				(font
					(size 1.27 1.27)
				)
				(hide yes)
			)
		)
		(property "ki_fp_filters" "Connector*:*_1x??_*"
			(at 0 0 0)
			(effects
				(font
					(size 1.27 1.27)
				)
				(hide yes)
			)
		)
		(symbol "Conn_01x02_Male-Connector_1_1"
			(polyline
				(pts
					(xy 1.27 -2.54) (xy 0.8636 -2.54)
				)
				(stroke
					(width 0.1524)
					(type solid)
				)
				(fill
					(type none)
				)
			)
			(polyline
				(pts
					(xy 1.27 0) (xy 0.8636 0)
				)
				(stroke
					(width 0.1524)
					(type solid)
				)
				(fill
					(type none)
				)
			)
			(rectangle
				(start 0.8636 -2.413)
				(end 0 -2.667)
				(stroke
					(width 0.1524)
					(type solid)
				)
				(fill
					(type outline)
				)
			)
			(rectangle
				(start 0.8636 0.127)
				(end 0 -0.127)
				(stroke
					(width 0.1524)
					(type solid)
				)
				(fill
					(type outline)
				)
			)
			(pin passive line
				(at 5.08 0 180)
				(length 3.81)
				(name "Pin_1"
					(effects
						(font
							(size 1.27 1.27)
						)
					)
				)
				(number "1"
					(effects
						(font
							(size 1.27 1.27)
						)
					)
				)
			)
			(pin passive line
				(at 5.08 -2.54 180)
				(length 3.81)
				(name "Pin_2"
					(effects
						(font
							(size 1.27 1.27)
						)
					)
				)
				(number "2"
					(effects
						(font
							(size 1.27 1.27)
						)
					)
				)
			)
		)
	)
	(symbol "GND-power"
		(power)
		(pin_names
			(offset 0)
		)
		(exclude_from_sim no)
		(in_bom yes)
		(on_board yes)
		(property "Reference" "#PWR"
			(at 0 -6.35 0)
			(effects
				(font
					(size 1.27 1.27)
				)
				(hide yes)
			)
		)
		(property "Value" "power_GND"
			(at 0 -3.81 0)
			(effects
				(font
					(size 1.27 1.27)
				)
			)
		)
		(property "Footprint" ""
			(at 0 0 0)
			(effects
				(font
					(size 1.27 1.27)
				)
				(hide yes)
			)
		)
		(property "Datasheet" ""
			(at 0 0 0)
			(effects
				(font
					(size 1.27 1.27)
				)
				(hide yes)
			)
		)
		(property "Description" ""
			(at 0 0 0)
			(effects
				(font
					(size 1.27 1.27)
				)
				(hide yes)
			)
		)
		(symbol "GND-power_0_1"
			(polyline
				(pts
					(xy 0 0) (xy 0 -1.27) (xy 1.27 -1.27) (xy 0 -2.54) (xy -1.27 -1.27) (xy 0 -1.27)
				)
				(stroke
					(width 0)
					(type solid)
				)
				(fill
					(type none)
				)
			)
		)
		(symbol "GND-power_1_1"
			(pin power_in line
				(at 0 0 270)
				(length 0) hide
				(name "GND"
					(effects
						(font
							(size 1.27 1.27)
						)
					)
				)
				(number "1"
					(effects
						(font
							(size 1.27 1.27)
						)
					)
				)
			)
		)
	)
	(symbol "MOSFET-NCH-2N7002PW-SparkFun-DiscreteSemi"
		(pin_numbers hide)
		(pin_names
			(offset 1.016) hide)
		(exclude_from_sim no)
		(in_bom yes)
		(on_board yes)
		(property "Reference" "Q"
			(at 3.81 3.81 0)
			(effects
				(font
					(size 1.143 1.143)
				)
				(justify left bottom)
			)
		)
		(property "Value" "SparkFun-DiscreteSemi_MOSFET-NCH-2N7002PW"
			(at 3.81 -5.08 0)
			(effects
				(font
					(size 1.143 1.143)
				)
				(justify left bottom)
			)
		)
		(property "Footprint" "SOT323"
			(at 0 7.62 0)
			(effects
				(font
					(size 0.508 0.508)
				)
				(hide yes)
			)
		)
		(property "Datasheet" ""
			(at 0 0 0)
			(effects
				(font
					(size 1.27 1.27)
				)
				(hide yes)
			)
		)
		(property "Description" "TRANS-11151"
			(at 0 8.89 0)
			(effects
				(font
					(size 1.524 1.524)
				)
			)
		)
		(property "ki_locked" ""
			(at 0 0 0)
			(effects
				(font
					(size 1.27 1.27)
				)
			)
		)
		(property "ki_fp_filters" "*SOT323* *SOT23-3* *SOT23-3*"
			(at 0 0 0)
			(effects
				(font
					(size 1.27 1.27)
				)
				(hide yes)
			)
		)
		(symbol "MOSFET-NCH-2N7002PW-SparkFun-DiscreteSemi_1_0"
			(polyline
				(pts
					(xy -2.54 -2.54) (xy -2.54 2.54)
				)
				(stroke
					(width 0)
					(type solid)
				)
				(fill
					(type none)
				)
			)
			(polyline
				(pts
					(xy -1.9812 -1.905) (xy -1.9812 -2.54)
				)
				(stroke
					(width 0)
					(type solid)
				)
				(fill
					(type none)
				)
			)
			(polyline
				(pts
					(xy -1.9812 -1.905) (xy 0 -1.905)
				)
				(stroke
					(width 0)
					(type solid)
				)
				(fill
					(type none)
				)
			)
			(polyline
				(pts
					(xy -1.9812 -1.2954) (xy -1.9812 -1.905)
				)
				(stroke
					(width 0)
					(type solid)
				)
				(fill
					(type none)
				)
			)
			(polyline
				(pts
					(xy -1.9812 0.6858) (xy -1.9812 -0.8382)
				)
				(stroke
					(width 0)
					(type solid)
				)
				(fill
					(type none)
				)
			)
			(polyline
				(pts
					(xy -1.9812 1.8034) (xy -1.9812 1.0922)
				)
				(stroke
					(width 0)
					(type solid)
				)
				(fill
					(type none)
				)
			)
			(polyline
				(pts
					(xy -1.9812 1.8034) (xy 2.54 1.8034)
				)
				(stroke
					(width 0)
					(type solid)
				)
				(fill
					(type none)
				)
			)
			(polyline
				(pts
					(xy -1.9812 2.54) (xy -1.9812 1.8034)
				)
				(stroke
					(width 0)
					(type solid)
				)
				(fill
					(type none)
				)
			)
			(polyline
				(pts
					(xy 0 -1.905) (xy 0 0)
				)
				(stroke
					(width 0)
					(type solid)
				)
				(fill
					(type none)
				)
			)
			(polyline
				(pts
					(xy 0 0) (xy -1.2192 0)
				)
				(stroke
					(width 0)
					(type solid)
				)
				(fill
					(type none)
				)
			)
			(polyline
				(pts
					(xy 1.6002 0.381) (xy 1.778 0.5588)
				)
				(stroke
					(width 0)
					(type solid)
				)
				(fill
					(type none)
				)
			)
			(polyline
				(pts
					(xy 2.54 -2.54) (xy 2.54 -1.905)
				)
				(stroke
					(width 0)
					(type solid)
				)
				(fill
					(type none)
				)
			)
			(polyline
				(pts
					(xy 2.54 -1.905) (xy 0 -1.905)
				)
				(stroke
					(width 0)
					(type solid)
				)
				(fill
					(type none)
				)
			)
			(polyline
				(pts
					(xy 2.54 -0.7112) (xy 2.54 -1.905)
				)
				(stroke
					(width 0)
					(type solid)
				)
				(fill
					(type none)
				)
			)
			(polyline
				(pts
					(xy 2.54 0.5588) (xy 1.778 0.5588)
				)
				(stroke
					(width 0)
					(type solid)
				)
				(fill
					(type none)
				)
			)
			(polyline
				(pts
					(xy 2.54 0.5588) (xy 3.302 0.5588)
				)
				(stroke
					(width 0)
					(type solid)
				)
				(fill
					(type none)
				)
			)
			(polyline
				(pts
					(xy 2.54 1.8034) (xy 2.54 0.5588)
				)
				(stroke
					(width 0)
					(type solid)
				)
				(fill
					(type none)
				)
			)
			(polyline
				(pts
					(xy 2.54 2.54) (xy 2.54 1.8034)
				)
				(stroke
					(width 0)
					(type solid)
				)
				(fill
					(type none)
				)
			)
			(polyline
				(pts
					(xy 3.302 0.5588) (xy 3.4798 0.7366)
				)
				(stroke
					(width 0)
					(type solid)
				)
				(fill
					(type none)
				)
			)
		)
		(symbol "MOSFET-NCH-2N7002PW-SparkFun-DiscreteSemi_1_1"
			(polyline
				(pts
					(xy -1.9812 0) (xy -1.2192 0.254) (xy -1.2192 0.254) (xy -1.2192 -0.254) (xy -1.2192 -0.254) (xy -1.9812 0)
				)
				(stroke
					(width 0)
					(type solid)
				)
				(fill
					(type outline)
				)
			)
			(polyline
				(pts
					(xy 1.778 -0.7112) (xy 2.54 0.5588) (xy 2.54 0.5588) (xy 3.302 -0.7112) (xy 3.302 -0.7112) (xy 1.778 -0.7112)
				)
				(stroke
					(width 0)
					(type solid)
				)
				(fill
					(type outline)
				)
			)
			(pin bidirectional line
				(at -5.08 -2.54 0)
				(length 2.54)
				(name "G"
					(effects
						(font
							(size 1.016 1.016)
						)
					)
				)
				(number "1"
					(effects
						(font
							(size 1.016 1.016)
						)
					)
				)
			)
			(pin bidirectional line
				(at 2.54 -5.08 90)
				(length 2.54)
				(name "S"
					(effects
						(font
							(size 1.016 1.016)
						)
					)
				)
				(number "2"
					(effects
						(font
							(size 1.016 1.016)
						)
					)
				)
			)
			(pin bidirectional line
				(at 2.54 5.08 270)
				(length 2.54)
				(name "D"
					(effects
						(font
							(size 1.016 1.016)
						)
					)
				)
				(number "3"
					(effects
						(font
							(size 1.016 1.016)
						)
					)
				)
			)
		)
	)
	(symbol "PWR_FLAG-power"
		(power)
		(pin_numbers hide)
		(pin_names
			(offset 0) hide)
		(exclude_from_sim no)
		(in_bom yes)
		(on_board yes)
		(property "Reference" "#FLG"
			(at 0 1.905 0)
			(effects
				(font
					(size 1.27 1.27)
				)
				(hide yes)
			)
		)
		(property "Value" "power_PWR_FLAG"
			(at 0 3.81 0)
			(effects
				(font
					(size 1.27 1.27)
				)
			)
		)
		(property "Footprint" ""
			(at 0 0 0)
			(effects
				(font
					(size 1.27 1.27)
				)
				(hide yes)
			)
		)
		(property "Datasheet" ""
			(at 0 0 0)
			(effects
				(font
					(size 1.27 1.27)
				)
				(hide yes)
			)
		)
		(property "Description" ""
			(at 0 0 0)
			(effects
				(font
					(size 1.27 1.27)
				)
				(hide yes)
			)
		)
		(symbol "PWR_FLAG-power_0_0"
			(pin power_out line
				(at 0 0 90)
				(length 0)
				(name "pwr"
					(effects
						(font
							(size 1.27 1.27)
						)
					)
				)
				(number "1"
					(effects
						(font
							(size 1.27 1.27)
						)
					)
				)
			)
		)
		(symbol "PWR_FLAG-power_0_1"
			(polyline
				(pts
					(xy 0 0) (xy 0 1.27) (xy -1.016 1.905) (xy 0 2.54) (xy 1.016 1.905) (xy 0 1.27)
				)
				(stroke
					(width 0)
					(type solid)
				)
				(fill
					(type none)
				)
			)
		)
	)
	(symbol "VA-metter5W-Device"
		(pin_names
			(offset 1.016)
		)
		(exclude_from_sim no)
		(in_bom yes)
		(on_board yes)
		(property "Reference" "U"
			(at 2.54 1.27 0)
			(effects
				(font
					(size 1.27 1.27)
				)
			)
		)
		(property "Value" "Device_VA-metter5W"
			(at 5.08 -7.62 0)
			(effects
				(font
					(size 1.27 1.27)
				)
			)
		)
		(property "Footprint" ""
			(at 0 0 0)
			(effects
				(font
					(size 1.27 1.27)
				)
				(hide yes)
			)
		)
		(property "Datasheet" ""
			(at 0 0 0)
			(effects
				(font
					(size 1.27 1.27)
				)
				(hide yes)
			)
		)
		(property "Description" ""
			(at 0 0 0)
			(effects
				(font
					(size 1.27 1.27)
				)
				(hide yes)
			)
		)
		(symbol "VA-metter5W-Device_0_1"
			(rectangle
				(start -3.81 0)
				(end 12.7 -15.24)
				(stroke
					(width 0)
					(type solid)
				)
				(fill
					(type background)
				)
			)
		)
		(symbol "VA-metter5W-Device_1_1"
			(pin passive line
				(at -8.89 -2.54 0)
				(length 5.08)
				(name "yellow"
					(effects
						(font
							(size 1.27 1.27)
						)
					)
				)
				(number "1"
					(effects
						(font
							(size 1.27 1.27)
						)
					)
				)
			)
			(pin passive line
				(at 17.78 -2.54 180)
				(length 5.08)
				(name "red"
					(effects
						(font
							(size 1.27 1.27)
						)
					)
				)
				(number "2"
					(effects
						(font
							(size 1.27 1.27)
						)
					)
				)
			)
			(pin passive line
				(at -8.89 -11.43 0)
				(length 5.08)
				(name "black"
					(effects
						(font
							(size 1.27 1.27)
						)
					)
				)
				(number "3"
					(effects
						(font
							(size 1.27 1.27)
						)
					)
				)
			)
			(pin passive line
				(at 17.78 -11.43 180)
				(length 5.08)
				(name "BIGRED"
					(effects
						(font
							(size 1.27 1.27)
						)
					)
				)
				(number "4"
					(effects
						(font
							(size 1.27 1.27)
						)
					)
				)
			)
			(pin passive line
				(at 17.78 -13.97 180)
				(length 5.08)
				(name "BIGBLACK"
					(effects
						(font
							(size 1.27 1.27)
						)
					)
				)
				(number "5"
					(effects
						(font
							(size 1.27 1.27)
						)
					)
				)
			)
		)
	)
)