EESchema Schematic File Version 4
EELAYER 30 0
EELAYER END
$Descr A4 11693 8268
encoding utf-8
Sheet 1 1
Title "CP0104 - charge fictive réglable"
Date "2021-10-17"
Rev "v0.0"
Comp ""
Comment1 "Option utilisant le TL431 pour une bonne stabilité en temperature"
Comment2 "Schéma identique à CP0104 de Philippe Demerliac"
Comment3 "http://philippe.demerliac.free.fr/Articles/CP0104/CP0104"
Comment4 ""
$EndDescr
$Comp
L Connector:Conn_01x02_Male J1
U 1 1 616CF552
P 1800 6450
F 0 "J1" H 1908 6631 50  0000 C CNN
F 1 "Power_12v" H 1908 6540 50  0000 C CNN
F 2 "Connector_BarrelJack:BarrelJack_CUI_PJ-063AH_Horizontal" H 1800 6450 50  0001 C CNN
F 3 "~" H 1800 6450 50  0001 C CNN
	1    1800 6450
	1    0    0    -1  
$EndComp
$Comp
L power:+12V #PWR01
U 1 1 616CFC41
P 2500 5950
F 0 "#PWR01" H 2500 5800 50  0001 C CNN
F 1 "+12V" H 2515 6123 50  0000 C CNN
F 2 "" H 2500 5950 50  0001 C CNN
F 3 "" H 2500 5950 50  0001 C CNN
	1    2500 5950
	1    0    0    -1  
$EndComp
$Comp
L power:GND #PWR02
U 1 1 616D012C
P 2500 7050
F 0 "#PWR02" H 2500 6800 50  0001 C CNN
F 1 "GND" H 2505 6877 50  0000 C CNN
F 2 "" H 2500 7050 50  0001 C CNN
F 3 "" H 2500 7050 50  0001 C CNN
	1    2500 7050
	1    0    0    -1  
$EndComp
Wire Wire Line
	2000 6450 2500 6450
Wire Wire Line
	2500 6450 2500 6100
Wire Wire Line
	2000 6550 2500 6550
Wire Wire Line
	2500 6550 2500 6850
$Comp
L Amplifier_Operational:LM358 U1
U 3 1 616D0F3E
P 3100 6500
F 0 "U1" H 3058 6546 50  0000 L CNN
F 1 "LM358" H 3058 6455 50  0000 L CNN
F 2 "Package_DIP:DIP-8_W7.62mm" H 3100 6500 50  0001 C CNN
F 3 "http://www.ti.com/lit/ds/symlink/lm2904-n.pdf" H 3100 6500 50  0001 C CNN
	3    3100 6500
	1    0    0    -1  
$EndComp
$Comp
L Amplifier_Operational:LM358 U1
U 2 1 616D2A28
P 5450 6500
F 0 "U1" H 5450 6867 50  0000 C CNN
F 1 "LM358" H 5450 6776 50  0000 C CNN
F 2 "Package_DIP:DIP-8_W7.62mm" H 5450 6500 50  0001 C CNN
F 3 "http://www.ti.com/lit/ds/symlink/lm2904-n.pdf" H 5450 6500 50  0001 C CNN
	2    5450 6500
	1    0    0    -1  
$EndComp
$Comp
L Amplifier_Operational:LM358 U1
U 1 1 616D43CF
P 4750 3000
F 0 "U1" H 4750 3367 50  0000 C CNN
F 1 "LM358" H 4750 3276 50  0000 C CNN
F 2 "Package_DIP:DIP-8_W7.62mm" H 4750 3000 50  0001 C CNN
F 3 "http://www.ti.com/lit/ds/symlink/lm2904-n.pdf" H 4750 3000 50  0001 C CNN
	1    4750 3000
	1    0    0    -1  
$EndComp
$Comp
L Device:C C1
U 1 1 616D6A06
P 3500 6500
F 0 "C1" H 3615 6546 50  0000 L CNN
F 1 "100n" H 3615 6455 50  0000 L CNN
F 2 "Capacitor_SMD:C_0603_1608Metric" H 3538 6350 50  0001 C CNN
F 3 "~" H 3500 6500 50  0001 C CNN
	1    3500 6500
	1    0    0    -1  
$EndComp
Wire Wire Line
	3000 6200 3000 6100
Wire Wire Line
	3000 6100 3500 6100
Wire Wire Line
	3500 6100 3500 6350
Wire Wire Line
	3000 6100 2500 6100
Connection ~ 3000 6100
Connection ~ 2500 6100
Wire Wire Line
	2500 6100 2500 6050
Wire Wire Line
	3000 6900 2500 6900
Wire Wire Line
	3000 6800 3000 6900
Connection ~ 2500 6900
Wire Wire Line
	2500 6900 2500 7050
Wire Wire Line
	3000 6900 3500 6900
Wire Wire Line
	5000 6400 5150 6400
Connection ~ 3000 6900
Wire Wire Line
	5150 6600 5000 6600
Connection ~ 5000 6600
Wire Wire Line
	5000 6600 5000 6400
Wire Wire Line
	3500 6650 3500 6900
NoConn ~ 5750 6500
$Comp
L power:+12V #PWR04
U 1 1 616DB7BF
P 2000 1050
F 0 "#PWR04" H 2000 900 50  0001 C CNN
F 1 "+12V" H 2015 1223 50  0000 C CNN
F 2 "" H 2000 1050 50  0001 C CNN
F 3 "" H 2000 1050 50  0001 C CNN
	1    2000 1050
	1    0    0    -1  
$EndComp
$Comp
L Device:D_Zener D1
U 1 1 616DC479
P 1000 1700
F 0 "D1" V 954 1780 50  0000 L CNN
F 1 "TVS12v" V 1045 1780 50  0000 L CNN
F 2 "Diode_THT:D_5W_P12.70mm_Horizontal" H 1000 1700 50  0001 C CNN
F 3 "~" H 1000 1700 50  0001 C CNN
	1    1000 1700
	0    1    1    0   
$EndComp
$Comp
L Device:R_US R1
U 1 1 616DCB8C
P 2000 1700
F 0 "R1" H 2068 1746 50  0000 L CNN
F 1 "1k" H 2068 1655 50  0000 L CNN
F 2 "Resistor_SMD:R_0805_2012Metric" V 2040 1690 50  0001 C CNN
F 3 "~" H 2000 1700 50  0001 C CNN
	1    2000 1700
	1    0    0    -1  
$EndComp
$Comp
L Reference_Voltage:TL431P U2
U 1 1 616DD844
P 2000 2500
F 0 "U2" V 2046 2430 50  0000 R CNN
F 1 "TL431P" V 1955 2430 50  0000 R CNN
F 2 "Package_DIP:DIP-8_W7.62mm" H 2000 2350 50  0001 C CIN
F 3 "http://www.ti.com/lit/ds/symlink/tl431.pdf" H 2000 2500 50  0001 C CIN
	1    2000 2500
	0    -1   -1   0   
$EndComp
$Comp
L power:GND #PWR03
U 1 1 616DF63D
P 5000 7050
F 0 "#PWR03" H 5000 6800 50  0001 C CNN
F 1 "GND" H 5005 6877 50  0000 C CNN
F 2 "" H 5000 7050 50  0001 C CNN
F 3 "" H 5000 7050 50  0001 C CNN
	1    5000 7050
	1    0    0    -1  
$EndComp
Wire Wire Line
	5000 6600 5000 7050
$Comp
L Device:C C2
U 1 1 616F3DE7
P 1400 2150
F 0 "C2" H 1515 2196 50  0000 L CNN
F 1 "470n" H 1515 2105 50  0000 L CNN
F 2 "Capacitor_SMD:C_0603_1608Metric" H 1438 2000 50  0001 C CNN
F 3 "~" H 1400 2150 50  0001 C CNN
	1    1400 2150
	1    0    0    -1  
$EndComp
$Comp
L Device:R_US R2
U 1 1 616F59B4
P 2600 2400
F 0 "R2" H 2668 2446 50  0000 L CNN
F 1 "150k" H 2668 2355 50  0000 L CNN
F 2 "Resistor_THT:R_Axial_DIN0411_L9.9mm_D3.6mm_P20.32mm_Horizontal" V 2640 2390 50  0001 C CNN
F 3 "~" H 2600 2400 50  0001 C CNN
	1    2600 2400
	1    0    0    -1  
$EndComp
$Comp
L Device:R_Potentiometer_US RV1
U 1 1 616F88F6
P 2600 2900
F 0 "RV1" H 2533 2946 50  0000 R CNN
F 1 "10K" H 2533 2855 50  0000 R CNN
F 2 "Connector_Phoenix_GMSTB:PhoenixContact_GMSTBA_2,5_3-G-7,62_1x03_P7.62mm_Horizontal" H 2600 2900 50  0001 C CNN
F 3 "~" H 2600 2900 50  0001 C CNN
	1    2600 2900
	1    0    0    -1  
$EndComp
$Comp
L Connector:TestPoint TP1
U 1 1 616F9A95
P 3250 2800
F 0 "TP1" H 3308 2918 50  0000 L CNN
F 1 "TestPoint" H 3308 2827 50  0000 L CNN
F 2 "Connector_PinHeader_2.54mm:PinHeader_1x01_P2.54mm_Vertical" H 3450 2800 50  0001 C CNN
F 3 "~" H 3450 2800 50  0001 C CNN
	1    3250 2800
	1    0    0    -1  
$EndComp
Wire Wire Line
	2000 1050 2000 1450
Wire Wire Line
	2000 1850 2000 1950
Wire Wire Line
	1900 2500 1800 2500
Wire Wire Line
	1800 2250 2000 2250
Connection ~ 2000 2250
Wire Wire Line
	2000 2250 2000 2400
Wire Wire Line
	2600 2250 2600 2100
Wire Wire Line
	2600 2100 2000 2100
Connection ~ 2000 2100
Wire Wire Line
	2000 2100 2000 2250
Wire Wire Line
	2000 1950 1400 1950
Wire Wire Line
	1400 1950 1400 2000
Connection ~ 2000 1950
Wire Wire Line
	2000 1950 2000 2100
Wire Wire Line
	2600 2550 2600 2750
Wire Wire Line
	3250 2800 3250 2900
Wire Wire Line
	3250 2900 2750 2900
Wire Wire Line
	1000 1550 1000 1450
Wire Wire Line
	1000 1450 2000 1450
Connection ~ 2000 1450
Wire Wire Line
	2000 1450 2000 1550
$Comp
L power:GND #PWR07
U 1 1 61702326
P 2000 2750
F 0 "#PWR07" H 2000 2500 50  0001 C CNN
F 1 "GND" H 2005 2577 50  0000 C CNN
F 2 "" H 2000 2750 50  0001 C CNN
F 3 "" H 2000 2750 50  0001 C CNN
	1    2000 2750
	1    0    0    -1  
$EndComp
$Comp
L power:GND #PWR08
U 1 1 6170260E
P 2600 3550
F 0 "#PWR08" H 2600 3300 50  0001 C CNN
F 1 "GND" H 2605 3377 50  0000 C CNN
F 2 "" H 2600 3550 50  0001 C CNN
F 3 "" H 2600 3550 50  0001 C CNN
	1    2600 3550
	1    0    0    -1  
$EndComp
$Comp
L power:GND #PWR06
U 1 1 61702785
P 1400 2750
F 0 "#PWR06" H 1400 2500 50  0001 C CNN
F 1 "GND" H 1405 2577 50  0000 C CNN
F 2 "" H 1400 2750 50  0001 C CNN
F 3 "" H 1400 2750 50  0001 C CNN
	1    1400 2750
	1    0    0    -1  
$EndComp
$Comp
L power:GND #PWR05
U 1 1 617029F3
P 1000 2000
F 0 "#PWR05" H 1000 1750 50  0001 C CNN
F 1 "GND" H 1005 1827 50  0000 C CNN
F 2 "" H 1000 2000 50  0001 C CNN
F 3 "" H 1000 2000 50  0001 C CNN
	1    1000 2000
	1    0    0    -1  
$EndComp
Wire Wire Line
	1000 1850 1000 2000
Wire Wire Line
	1400 2300 1400 2750
Wire Wire Line
	2000 2600 2000 2750
Wire Wire Line
	2600 3050 2600 3550
$Comp
L Device:C C3
U 1 1 61711906
P 3750 3250
F 0 "C3" H 3865 3296 50  0000 L CNN
F 1 "470n" H 3865 3205 50  0000 L CNN
F 2 "Capacitor_SMD:C_0603_1608Metric" H 3788 3100 50  0001 C CNN
F 3 "~" H 3750 3250 50  0001 C CNN
	1    3750 3250
	1    0    0    -1  
$EndComp
Wire Wire Line
	4450 2900 3750 2900
Connection ~ 3250 2900
Wire Wire Line
	3750 3100 3750 2900
Connection ~ 3750 2900
Wire Wire Line
	3750 2900 3250 2900
$Comp
L power:GND #PWR09
U 1 1 61721311
P 3750 3550
F 0 "#PWR09" H 3750 3300 50  0001 C CNN
F 1 "GND" H 3755 3377 50  0000 C CNN
F 2 "" H 3750 3550 50  0001 C CNN
F 3 "" H 3750 3550 50  0001 C CNN
	1    3750 3550
	1    0    0    -1  
$EndComp
Wire Wire Line
	3750 3400 3750 3550
Wire Wire Line
	1800 2250 1800 2500
$Comp
L Device:R_US R3
U 1 1 6172720A
P 5400 3000
F 0 "R3" V 5195 3000 50  0000 C CNN
F 1 "330" V 5286 3000 50  0000 C CNN
F 2 "Resistor_SMD:R_0805_2012Metric" V 5440 2990 50  0001 C CNN
F 3 "~" H 5400 3000 50  0001 C CNN
	1    5400 3000
	0    1    1    0   
$EndComp
$Comp
L SparkFun-DiscreteSemi:MOSFET-NCH-2N7002PW Q1
U 1 1 61728865
P 6150 2900
F 0 "Q1" H 6315 2995 45  0000 L CNN
F 1 "IRFP4410" H 6315 2911 45  0000 L CNN
F 2 "Package_TO_SOT_THT:TO-220-3_Vertical" H 6150 3200 20  0001 C CNN
F 3 "" H 6150 2900 50  0001 C CNN
F 4 "TRANS-11151" H 6315 2816 60  0000 L CNN "Field4"
	1    6150 2900
	1    0    0    -1  
$EndComp
Wire Wire Line
	5250 3000 5050 3000
Wire Wire Line
	5550 3000 5950 3000
$Comp
L Device:R_US R4
U 1 1 6172EC43
P 6850 1750
F 0 "R4" H 6782 1704 50  0000 R CNN
F 1 "2r2" H 6782 1795 50  0000 R CNN
F 2 "Resistor_SMD:R_0805_2012Metric" V 6890 1740 50  0001 C CNN
F 3 "~" H 6850 1750 50  0001 C CNN
	1    6850 1750
	-1   0    0    1   
$EndComp
$Comp
L Device:C C4
U 1 1 617330B0
P 6850 2150
F 0 "C4" H 6965 2196 50  0000 L CNN
F 1 "2.2u" H 6965 2105 50  0000 L CNN
F 2 "Capacitor_THT:C_Radial_D6.3mm_H11.0mm_P2.50mm" H 6888 2000 50  0001 C CNN
F 3 "~" H 6850 2150 50  0001 C CNN
	1    6850 2150
	1    0    0    -1  
$EndComp
$Comp
L power:GND #PWR010
U 1 1 61733C6C
P 6850 2400
F 0 "#PWR010" H 6850 2150 50  0001 C CNN
F 1 "GND" H 6855 2227 50  0000 C CNN
F 2 "" H 6850 2400 50  0001 C CNN
F 3 "" H 6850 2400 50  0001 C CNN
	1    6850 2400
	1    0    0    -1  
$EndComp
Wire Wire Line
	6850 1600 6850 1500
Wire Wire Line
	6850 1500 6250 1500
Wire Wire Line
	6250 1500 6250 2700
Wire Wire Line
	6850 1900 6850 2000
Wire Wire Line
	6850 2300 6850 2400
$Comp
L Device:D_Zener D2
U 1 1 6173CC36
P 9500 1750
F 0 "D2" V 9454 1830 50  0000 L CNN
F 1 "TVSmaxV" V 9545 1830 50  0000 L CNN
F 2 "Diode_THT:D_5W_P12.70mm_Horizontal" H 9500 1750 50  0001 C CNN
F 3 "~" H 9500 1750 50  0001 C CNN
	1    9500 1750
	0    1    1    0   
$EndComp
$Comp
L Device:Fuse F1
U 1 1 6173EA57
P 9850 1500
F 0 "F1" V 9653 1500 50  0000 C CNN
F 1 "Fuse" V 9744 1500 50  0000 C CNN
F 2 "Fuse:Fuseholder_Cylinder-6.3x32mm_Schurter_0031-8002_Horizontal_Open" V 9780 1500 50  0001 C CNN
F 3 "~" H 9850 1500 50  0001 C CNN
	1    9850 1500
	0    1    1    0   
$EndComp
$Comp
L power:GND #PWR012
U 1 1 61742E01
P 10100 3800
F 0 "#PWR012" H 10100 3550 50  0001 C CNN
F 1 "GND" H 10105 3627 50  0000 C CNN
F 2 "" H 10100 3800 50  0001 C CNN
F 3 "" H 10100 3800 50  0001 C CNN
	1    10100 3800
	1    0    0    -1  
$EndComp
Wire Wire Line
	10100 1500 10000 1500
Wire Wire Line
	9700 1500 9500 1500
Wire Wire Line
	9500 1500 9500 1600
Wire Wire Line
	6850 1500 7500 1500
Connection ~ 6850 1500
Connection ~ 9500 1500
$Comp
L power:GND #PWR011
U 1 1 61749F35
P 9500 2000
F 0 "#PWR011" H 9500 1750 50  0001 C CNN
F 1 "GND" H 9505 1827 50  0000 C CNN
F 2 "" H 9500 2000 50  0001 C CNN
F 3 "" H 9500 2000 50  0001 C CNN
	1    9500 2000
	1    0    0    -1  
$EndComp
Wire Wire Line
	9500 1900 9500 2000
$Comp
L Connector:Conn_01x02_Male J2
U 1 1 6174E258
P 10400 2800
F 0 "J2" H 10372 2682 50  0000 R CNN
F 1 "LOAD" H 10372 2773 50  0000 R CNN
F 2 "Connector_Phoenix_MC_HighVoltage:PhoenixContact_MCV_1,5_2-GF-5.08_1x02_P5.08mm_Vertical_ThreadedFlange" H 10400 2800 50  0001 C CNN
F 3 "~" H 10400 2800 50  0001 C CNN
	1    10400 2800
	-1   0    0    1   
$EndComp
Wire Wire Line
	10100 1500 10100 2700
Wire Wire Line
	10100 2700 10200 2700
Wire Wire Line
	10200 2800 10100 2800
Wire Wire Line
	10100 2800 10100 3800
$Comp
L Device:VA-metter5W U3
U 1 1 61768F4C
P 8050 2750
F 0 "U3" H 8225 2915 50  0000 C CNN
F 1 "VA-metter5W" H 8225 2824 50  0000 C CNN
F 2 "Connector_Phoenix_MSTB:PhoenixContact_MSTBA_2,5_5-G_1x05_P5.00mm_Horizontal" H 8050 2750 50  0001 C CNN
F 3 "" H 8050 2750 50  0001 C CNN
	1    8050 2750
	1    0    0    -1  
$EndComp
Wire Wire Line
	8750 3200 9250 3200
Wire Wire Line
	9250 3200 9250 3700
Wire Wire Line
	9250 3700 6250 3700
Wire Wire Line
	4200 3700 4200 3100
Wire Wire Line
	4200 3100 4450 3100
Wire Wire Line
	6250 3100 6250 3700
Connection ~ 6250 3700
Wire Wire Line
	6250 3700 4200 3700
$Comp
L power:GND #PWR015
U 1 1 61771213
P 8900 3450
F 0 "#PWR015" H 8900 3200 50  0001 C CNN
F 1 "GND" H 8905 3277 50  0000 C CNN
F 2 "" H 8900 3450 50  0001 C CNN
F 3 "" H 8900 3450 50  0001 C CNN
	1    8900 3450
	1    0    0    -1  
$EndComp
Wire Wire Line
	8900 3450 8900 3300
Wire Wire Line
	8900 3300 8750 3300
$Comp
L power:GND #PWR013
U 1 1 61772D42
P 7550 3450
F 0 "#PWR013" H 7550 3200 50  0001 C CNN
F 1 "GND" H 7555 3277 50  0000 C CNN
F 2 "" H 7550 3450 50  0001 C CNN
F 3 "" H 7550 3450 50  0001 C CNN
	1    7550 3450
	1    0    0    -1  
$EndComp
Wire Wire Line
	7550 3450 7550 3200
Wire Wire Line
	7550 3200 7700 3200
Wire Wire Line
	7700 2850 7500 2850
Wire Wire Line
	7500 2850 7500 1500
Connection ~ 7500 1500
Wire Wire Line
	7500 1500 9500 1500
$Comp
L power:+12V #PWR014
U 1 1 61778C4B
P 8900 2100
F 0 "#PWR014" H 8900 1950 50  0001 C CNN
F 1 "+12V" H 8915 2273 50  0000 C CNN
F 2 "" H 8900 2100 50  0001 C CNN
F 3 "" H 8900 2100 50  0001 C CNN
	1    8900 2100
	1    0    0    -1  
$EndComp
Wire Wire Line
	8900 2100 8900 2400
Wire Wire Line
	8900 2850 8750 2850
$Comp
L power:GND #PWR016
U 1 1 61780F8E
P 9250 2900
F 0 "#PWR016" H 9250 2650 50  0001 C CNN
F 1 "GND" H 9255 2727 50  0000 C CNN
F 2 "" H 9250 2900 50  0001 C CNN
F 3 "" H 9250 2900 50  0001 C CNN
	1    9250 2900
	1    0    0    -1  
$EndComp
Wire Wire Line
	9250 2800 9250 2900
Wire Wire Line
	9250 2500 9250 2400
Wire Wire Line
	9250 2400 8900 2400
Connection ~ 8900 2400
Wire Wire Line
	8900 2400 8900 2850
$Comp
L Device:C_Polarized_US C5
U 1 1 61786D5E
P 9250 2650
F 0 "C5" H 9365 2696 50  0000 L CNN
F 1 "10u" H 9365 2605 50  0000 L CNN
F 2 "Capacitor_THT:C_Radial_D8.0mm_H11.5mm_P3.50mm" H 9250 2650 50  0001 C CNN
F 3 "~" H 9250 2650 50  0001 C CNN
	1    9250 2650
	1    0    0    -1  
$EndComp
$Comp
L power:PWR_FLAG #FLG0101
U 1 1 6178E726
P 2500 6050
F 0 "#FLG0101" H 2500 6125 50  0001 C CNN
F 1 "PWR_FLAG" V 2500 6177 50  0000 L CNN
F 2 "" H 2500 6050 50  0001 C CNN
F 3 "~" H 2500 6050 50  0001 C CNN
	1    2500 6050
	0    -1   -1   0   
$EndComp
Connection ~ 2500 6050
Wire Wire Line
	2500 6050 2500 5950
$Comp
L power:PWR_FLAG #FLG0102
U 1 1 6178F5C6
P 2500 6850
F 0 "#FLG0102" H 2500 6925 50  0001 C CNN
F 1 "PWR_FLAG" V 2500 6977 50  0000 L CNN
F 2 "" H 2500 6850 50  0001 C CNN
F 3 "~" H 2500 6850 50  0001 C CNN
	1    2500 6850
	0    -1   -1   0   
$EndComp
Connection ~ 2500 6850
Wire Wire Line
	2500 6850 2500 6900
$EndSCHEMATC
