M48
; DRILL file {KiCad 8.0.1+b2} date 2024-05-01T21:33:33+0200
; FORMAT={-:-/ absolute / inch / decimal}
; #@! TF.CreationDate,2024-05-01T21:33:33+02:00
; #@! TF.GenerationSoftware,Kicad,Pcbnew,8.0.1+b2
; #@! TF.FileFunction,NonPlated,1,2,NPTH
FMAT,2
INCH
; #@! TA.AperFunction,NonPlated,NPTH,ComponentDrill
T1C0.0630
; #@! TA.AperFunction,NonPlated,NPTH,ComponentDrill
T2C0.1260
%
G90
G05
T1
X6.66Y-2.2755
T2
X7.7982Y-2.81
M30
